<?xml version="1.0" encoding="utf-8"?>
<!DOCTYPE eagle SYSTEM "eagle.dtd">
<eagle version="8.6.0">
<drawing>
<settings>
<setting alwaysvectorfont="no"/>
<setting verticaltext="up"/>
</settings>
<grid distance="50" unitdist="mil" unit="mm" style="lines" multiple="1" display="no" altdistance="5" altunitdist="mil" altunit="mm"/>
<layers>
<layer number="1" name="Top" color="4" fill="1" visible="yes" active="yes"/>
<layer number="2" name="Route2" color="1" fill="3" visible="no" active="no"/>
<layer number="3" name="Route3" color="4" fill="3" visible="no" active="no"/>
<layer number="4" name="Route4" color="1" fill="4" visible="no" active="no"/>
<layer number="5" name="Route5" color="4" fill="4" visible="no" active="no"/>
<layer number="6" name="Route6" color="1" fill="8" visible="no" active="no"/>
<layer number="7" name="Route7" color="4" fill="8" visible="no" active="no"/>
<layer number="8" name="Route8" color="1" fill="2" visible="no" active="no"/>
<layer number="9" name="Route9" color="4" fill="2" visible="no" active="no"/>
<layer number="10" name="Route10" color="1" fill="7" visible="no" active="no"/>
<layer number="11" name="Route11" color="4" fill="7" visible="no" active="no"/>
<layer number="12" name="Route12" color="1" fill="5" visible="no" active="no"/>
<layer number="13" name="Route13" color="4" fill="5" visible="no" active="no"/>
<layer number="14" name="Route14" color="1" fill="6" visible="no" active="no"/>
<layer number="15" name="Route15" color="4" fill="6" visible="no" active="no"/>
<layer number="16" name="Bottom" color="1" fill="1" visible="yes" active="yes"/>
<layer number="17" name="Pads" color="2" fill="1" visible="yes" active="yes"/>
<layer number="18" name="Vias" color="2" fill="1" visible="yes" active="yes"/>
<layer number="19" name="Unrouted" color="6" fill="1" visible="yes" active="yes"/>
<layer number="20" name="Dimension" color="24" fill="1" visible="yes" active="yes"/>
<layer number="21" name="tPlace" color="7" fill="1" visible="yes" active="yes"/>
<layer number="22" name="bPlace" color="7" fill="1" visible="yes" active="yes"/>
<layer number="23" name="tOrigins" color="15" fill="1" visible="yes" active="yes"/>
<layer number="24" name="bOrigins" color="15" fill="1" visible="yes" active="yes"/>
<layer number="25" name="tNames" color="7" fill="1" visible="yes" active="yes"/>
<layer number="26" name="bNames" color="7" fill="1" visible="yes" active="yes"/>
<layer number="27" name="tValues" color="7" fill="1" visible="yes" active="yes"/>
<layer number="28" name="bValues" color="7" fill="1" visible="yes" active="yes"/>
<layer number="29" name="tStop" color="7" fill="3" visible="no" active="yes"/>
<layer number="30" name="bStop" color="7" fill="6" visible="no" active="yes"/>
<layer number="31" name="tCream" color="7" fill="4" visible="no" active="yes"/>
<layer number="32" name="bCream" color="7" fill="5" visible="no" active="yes"/>
<layer number="33" name="tFinish" color="6" fill="3" visible="no" active="yes"/>
<layer number="34" name="bFinish" color="6" fill="6" visible="no" active="yes"/>
<layer number="35" name="tGlue" color="7" fill="4" visible="no" active="yes"/>
<layer number="36" name="bGlue" color="7" fill="5" visible="no" active="yes"/>
<layer number="37" name="tTest" color="7" fill="1" visible="no" active="yes"/>
<layer number="38" name="bTest" color="7" fill="1" visible="no" active="yes"/>
<layer number="39" name="tKeepout" color="4" fill="11" visible="yes" active="yes"/>
<layer number="40" name="bKeepout" color="1" fill="11" visible="yes" active="yes"/>
<layer number="41" name="tRestrict" color="4" fill="10" visible="yes" active="yes"/>
<layer number="42" name="bRestrict" color="1" fill="10" visible="yes" active="yes"/>
<layer number="43" name="vRestrict" color="2" fill="10" visible="yes" active="yes"/>
<layer number="44" name="Drills" color="7" fill="1" visible="no" active="yes"/>
<layer number="45" name="Holes" color="7" fill="1" visible="yes" active="yes"/>
<layer number="46" name="Milling" color="3" fill="1" visible="no" active="yes"/>
<layer number="47" name="Measures" color="7" fill="1" visible="no" active="yes"/>
<layer number="48" name="Document" color="7" fill="1" visible="yes" active="yes"/>
<layer number="49" name="Reference" color="7" fill="1" visible="yes" active="yes"/>
<layer number="50" name="dxf" color="7" fill="1" visible="no" active="no"/>
<layer number="51" name="tDocu" color="7" fill="1" visible="yes" active="yes"/>
<layer number="52" name="bDocu" color="7" fill="1" visible="yes" active="yes"/>
<layer number="53" name="tGND_GNDA" color="7" fill="9" visible="no" active="no"/>
<layer number="54" name="bGND_GNDA" color="1" fill="9" visible="no" active="no"/>
<layer number="56" name="wert" color="7" fill="1" visible="no" active="no"/>
<layer number="57" name="tCAD" color="7" fill="1" visible="no" active="no"/>
<layer number="59" name="tCarbon" color="7" fill="1" visible="no" active="no"/>
<layer number="60" name="bCarbon" color="7" fill="1" visible="no" active="no"/>
<layer number="88" name="SimResults" color="9" fill="1" visible="no" active="no"/>
<layer number="89" name="SimProbes" color="9" fill="1" visible="no" active="no"/>
<layer number="90" name="Modules" color="5" fill="1" visible="no" active="no"/>
<layer number="91" name="Nets" color="2" fill="1" visible="no" active="no"/>
<layer number="92" name="Busses" color="1" fill="1" visible="no" active="no"/>
<layer number="93" name="Pins" color="2" fill="1" visible="no" active="no"/>
<layer number="94" name="Symbols" color="4" fill="1" visible="no" active="no"/>
<layer number="95" name="Names" color="7" fill="1" visible="no" active="no"/>
<layer number="96" name="Values" color="7" fill="1" visible="no" active="no"/>
<layer number="97" name="Info" color="7" fill="1" visible="no" active="no"/>
<layer number="98" name="Guide" color="6" fill="1" visible="no" active="no"/>
<layer number="99" name="SpiceOrder" color="7" fill="1" visible="no" active="no"/>
<layer number="100" name="Muster" color="7" fill="1" visible="no" active="no"/>
<layer number="101" name="Patch_Top" color="12" fill="4" visible="yes" active="yes"/>
<layer number="102" name="Vscore" color="7" fill="1" visible="yes" active="yes"/>
<layer number="103" name="tMap" color="7" fill="1" visible="yes" active="yes"/>
<layer number="104" name="Name" color="16" fill="1" visible="yes" active="yes"/>
<layer number="105" name="tPlate" color="7" fill="1" visible="yes" active="yes"/>
<layer number="106" name="bPlate" color="7" fill="1" visible="yes" active="yes"/>
<layer number="107" name="Crop" color="7" fill="1" visible="yes" active="yes"/>
<layer number="108" name="tplace-old" color="10" fill="1" visible="yes" active="yes"/>
<layer number="109" name="ref-old" color="11" fill="1" visible="yes" active="yes"/>
<layer number="110" name="fp0" color="7" fill="1" visible="yes" active="yes"/>
<layer number="111" name="LPC17xx" color="7" fill="1" visible="yes" active="yes"/>
<layer number="112" name="tSilk" color="7" fill="1" visible="yes" active="yes"/>
<layer number="113" name="IDFDebug" color="4" fill="1" visible="yes" active="yes"/>
<layer number="114" name="Badge_Outline" color="7" fill="1" visible="yes" active="yes"/>
<layer number="115" name="ReferenceISLANDS" color="7" fill="1" visible="yes" active="yes"/>
<layer number="116" name="Patch_BOT" color="9" fill="4" visible="yes" active="yes"/>
<layer number="118" name="Rect_Pads" color="7" fill="1" visible="yes" active="yes"/>
<layer number="121" name="_tsilk" color="7" fill="1" visible="yes" active="yes"/>
<layer number="122" name="_bsilk" color="7" fill="1" visible="yes" active="yes"/>
<layer number="123" name="tTestmark" color="7" fill="1" visible="yes" active="yes"/>
<layer number="124" name="bTestmark" color="7" fill="1" visible="yes" active="yes"/>
<layer number="125" name="_tNames" color="7" fill="1" visible="yes" active="yes"/>
<layer number="126" name="_bNames" color="7" fill="1" visible="yes" active="yes"/>
<layer number="127" name="_tValues" color="7" fill="1" visible="yes" active="yes"/>
<layer number="128" name="_bValues" color="7" fill="1" visible="yes" active="yes"/>
<layer number="129" name="Mask" color="7" fill="1" visible="yes" active="yes"/>
<layer number="131" name="tAdjust" color="7" fill="1" visible="yes" active="yes"/>
<layer number="132" name="bAdjust" color="7" fill="1" visible="yes" active="yes"/>
<layer number="144" name="Drill_legend" color="7" fill="1" visible="yes" active="yes"/>
<layer number="150" name="Notes" color="7" fill="1" visible="yes" active="yes"/>
<layer number="151" name="HeatSink" color="7" fill="1" visible="yes" active="yes"/>
<layer number="152" name="_bDocu" color="7" fill="1" visible="yes" active="yes"/>
<layer number="153" name="FabDoc1" color="7" fill="1" visible="yes" active="yes"/>
<layer number="154" name="FabDoc2" color="7" fill="1" visible="yes" active="yes"/>
<layer number="155" name="FabDoc3" color="7" fill="1" visible="yes" active="yes"/>
<layer number="199" name="Contour" color="7" fill="1" visible="yes" active="yes"/>
<layer number="200" name="200bmp" color="1" fill="10" visible="yes" active="yes"/>
<layer number="201" name="201bmp" color="2" fill="10" visible="yes" active="yes"/>
<layer number="202" name="202bmp" color="3" fill="10" visible="yes" active="yes"/>
<layer number="203" name="203bmp" color="4" fill="10" visible="yes" active="yes"/>
<layer number="204" name="204bmp" color="5" fill="10" visible="yes" active="yes"/>
<layer number="205" name="205bmp" color="6" fill="10" visible="yes" active="yes"/>
<layer number="206" name="206bmp" color="7" fill="10" visible="yes" active="yes"/>
<layer number="207" name="207bmp" color="8" fill="10" visible="yes" active="yes"/>
<layer number="208" name="208bmp" color="9" fill="10" visible="yes" active="yes"/>
<layer number="209" name="209bmp" color="7" fill="1" visible="yes" active="yes"/>
<layer number="210" name="210bmp" color="7" fill="1" visible="yes" active="yes"/>
<layer number="211" name="211bmp" color="7" fill="1" visible="yes" active="yes"/>
<layer number="212" name="212bmp" color="7" fill="1" visible="yes" active="yes"/>
<layer number="213" name="213bmp" color="7" fill="1" visible="yes" active="yes"/>
<layer number="214" name="214bmp" color="7" fill="1" visible="yes" active="yes"/>
<layer number="215" name="215bmp" color="7" fill="1" visible="yes" active="yes"/>
<layer number="216" name="216bmp" color="7" fill="1" visible="yes" active="yes"/>
<layer number="217" name="217bmp" color="18" fill="1" visible="no" active="no"/>
<layer number="218" name="218bmp" color="19" fill="1" visible="no" active="no"/>
<layer number="219" name="219bmp" color="20" fill="1" visible="no" active="no"/>
<layer number="220" name="220bmp" color="21" fill="1" visible="no" active="no"/>
<layer number="221" name="221bmp" color="22" fill="1" visible="no" active="no"/>
<layer number="222" name="222bmp" color="23" fill="1" visible="no" active="no"/>
<layer number="223" name="223bmp" color="24" fill="1" visible="no" active="no"/>
<layer number="224" name="224bmp" color="25" fill="1" visible="no" active="no"/>
<layer number="225" name="225bmp" color="7" fill="1" visible="yes" active="yes"/>
<layer number="226" name="226bmp" color="7" fill="1" visible="yes" active="yes"/>
<layer number="227" name="227bmp" color="7" fill="1" visible="yes" active="yes"/>
<layer number="228" name="228bmp" color="7" fill="1" visible="yes" active="yes"/>
<layer number="229" name="229bmp" color="7" fill="1" visible="yes" active="yes"/>
<layer number="230" name="230bmp" color="7" fill="1" visible="yes" active="yes"/>
<layer number="231" name="231bmp" color="7" fill="1" visible="yes" active="yes"/>
<layer number="232" name="Eagle3D_PG2" color="7" fill="1" visible="yes" active="yes"/>
<layer number="233" name="Eagle3D_PG3" color="7" fill="1" visible="yes" active="yes"/>
<layer number="248" name="Housing" color="7" fill="1" visible="yes" active="yes"/>
<layer number="249" name="Edge" color="7" fill="1" visible="yes" active="yes"/>
<layer number="250" name="Descript" color="3" fill="1" visible="no" active="no"/>
<layer number="251" name="SMDround" color="12" fill="11" visible="no" active="no"/>
<layer number="254" name="cooling" color="7" fill="1" visible="yes" active="yes"/>
<layer number="255" name="routoute" color="7" fill="1" visible="yes" active="yes"/>
</layers>
<board>
<plain>
<wire x1="-11" y1="0" x2="53" y2="0" width="0" layer="20"/>
<wire x1="53" y1="0" x2="53" y2="28" width="0" layer="20"/>
<wire x1="53" y1="28" x2="-11" y2="28" width="0" layer="20"/>
<wire x1="-11" y1="28" x2="-11" y2="0" width="0" layer="20"/>
<hole x="-9.4" y="26.4" drill="2"/>
<hole x="-9.4" y="1.6" drill="2"/>
<hole x="51.4" y="26.4" drill="2"/>
<hole x="51.4" y="1.6" drill="2"/>
<text x="29.21" y="13.97" size="1.778" layer="21" align="center">University of Bath
SpO2 Sensor Board
Version 1.1
7/4/2020</text>
</plain>
<libraries>
<library name="SpO2_Sensor">
<packages>
<package name="MAX3010X">
<pad name="P$1" x="0" y="0" drill="1" shape="square"/>
<pad name="P$2" x="0" y="-2.54" drill="1"/>
<pad name="P$3" x="0" y="-5.08" drill="1"/>
<pad name="P$4" x="0" y="-7.62" drill="1"/>
<pad name="P$5" x="0" y="-10.16" drill="1"/>
<pad name="P$6" x="0" y="-12.7" drill="1"/>
<pad name="3V3" x="0" y="-15.24" drill="1"/>
<pad name="GND" x="0" y="-17.78" drill="1"/>
<pad name="GND2" x="22.86" y="-17.78" drill="1"/>
<pad name="5V" x="22.86" y="-15.24" drill="1"/>
<pad name="SDA" x="22.86" y="-12.7" drill="1"/>
<pad name="SCL" x="22.86" y="-10.16" drill="1"/>
<pad name="P$13" x="22.86" y="-7.62" drill="1"/>
<pad name="P$14" x="22.86" y="-5.08" drill="1"/>
<pad name="INT" x="22.86" y="-2.54" drill="1"/>
<pad name="P$16" x="22.86" y="0" drill="1"/>
<wire x1="24.13" y1="-21.59" x2="24.13" y2="15.24" width="0.127" layer="21"/>
<wire x1="-1.27" y1="-21.9" x2="-1.27" y2="15.24" width="0.127" layer="21"/>
<wire x1="-1.27" y1="-21.9" x2="24.13" y2="-21.9" width="0.127" layer="21"/>
<wire x1="8.89" y1="17.78" x2="12.7" y2="17.78" width="0.127" layer="21"/>
<wire x1="12.7" y1="17.78" x2="12.7" y2="10.16" width="0.127" layer="21"/>
<wire x1="12.7" y1="10.16" x2="8.89" y2="10.16" width="0.127" layer="21"/>
<wire x1="8.89" y1="10.16" x2="8.89" y2="17.78" width="0.127" layer="21"/>
<wire x1="-1.27" y1="15.24" x2="11.43" y2="19.05" width="0.127" layer="21" curve="-136.930587"/>
<wire x1="24.13" y1="15.24" x2="11.43" y2="19.05" width="0.127" layer="22" curve="136.930587"/>
<wire x1="24.13" y1="15.24" x2="11.43" y2="19.05" width="0.127" layer="22" curve="136.930587"/>
</package>
<package name="OLED">
<pad name="SDA" x="0" y="0" drill="1" shape="square"/>
<pad name="SCL" x="0" y="-2.54" drill="1"/>
<pad name="VCC" x="0" y="-5.08" drill="1"/>
<pad name="GND" x="0" y="-7.62" drill="1"/>
<wire x1="-1.27" y1="1.27" x2="-1.27" y2="-8.89" width="0.127" layer="21"/>
<wire x1="-1.27" y1="-8.89" x2="3.81" y2="-8.89" width="0.127" layer="21"/>
<wire x1="3.81" y1="-8.89" x2="3.81" y2="1.27" width="0.127" layer="21"/>
<wire x1="3.81" y1="1.27" x2="-1.27" y2="1.27" width="0.127" layer="21"/>
</package>
</packages>
</library>
<library name="Arduino-clone">
<description>Arduino Clone pinheaders
By cl@xganon.com
http://www.xganon.com</description>
<packages>
<package name="NANO">
<pad name="TX0" x="17.78" y="2.54" drill="1" shape="long"/>
<pad name="RX1" x="17.78" y="5.08" drill="1" shape="long"/>
<pad name="RST1" x="17.78" y="7.62" drill="1" shape="long"/>
<pad name="GND1" x="17.78" y="10.16" drill="1" shape="long"/>
<pad name="D2" x="17.78" y="12.7" drill="1" shape="long"/>
<pad name="D3" x="17.78" y="15.24" drill="1" shape="long"/>
<pad name="D4" x="17.78" y="17.78" drill="1" shape="long"/>
<pad name="D5" x="17.78" y="20.32" drill="1" shape="long"/>
<pad name="D6" x="17.78" y="22.86" drill="1" shape="long"/>
<pad name="D7" x="17.78" y="25.4" drill="1" shape="long"/>
<pad name="D8" x="17.78" y="27.94" drill="1" shape="long"/>
<pad name="D9" x="17.78" y="30.48" drill="1" shape="long"/>
<pad name="RAW" x="2.54" y="2.54" drill="1" shape="long"/>
<pad name="GND" x="2.54" y="5.08" drill="1" shape="long"/>
<pad name="RST" x="2.54" y="7.62" drill="1" shape="long"/>
<pad name="A3" x="2.54" y="22.86" drill="1" shape="long"/>
<pad name="A2" x="2.54" y="25.4" drill="1" shape="long"/>
<pad name="A1" x="2.54" y="27.94" drill="1" shape="long"/>
<pad name="A0" x="2.54" y="30.48" drill="1" shape="long"/>
<pad name="D13" x="2.54" y="38.1" drill="1" shape="long"/>
<pad name="D12" x="17.78" y="38.1" drill="1" shape="long"/>
<pad name="D11" x="17.78" y="35.56" drill="1" shape="long"/>
<pad name="D10" x="17.78" y="33.02" drill="1" shape="long"/>
<pad name="3.3V" x="2.54" y="35.56" drill="1" shape="long" rot="R180"/>
<pad name="AREF" x="2.54" y="33.02" drill="1" shape="long" rot="R180"/>
<pad name="5V" x="2.54" y="10.16" drill="1" shape="long"/>
<pad name="ICSP2" x="7.62" y="3.81" drill="0.8" rot="R90"/>
<pad name="ICSP4" x="10.16" y="3.81" drill="0.8" rot="R90"/>
<pad name="ICSP6" x="12.7" y="3.81" drill="0.8" rot="R90"/>
<pad name="A4" x="2.54" y="20.32" drill="1" shape="long" rot="R180"/>
<pad name="A5" x="2.54" y="17.78" drill="1" shape="long" rot="R180"/>
<pad name="A6" x="2.54" y="15.24" drill="1" shape="long" rot="R180"/>
<pad name="A7" x="2.54" y="12.7" drill="1" shape="long" rot="R180"/>
<pad name="ICSP1" x="7.62" y="1.27" drill="0.8" rot="R90"/>
<pad name="ICSP3" x="10.16" y="1.27" drill="0.8" rot="R90"/>
<pad name="ICSP5" x="12.7" y="1.27" drill="0.8" rot="R90"/>
<wire x1="0" y1="0" x2="20.32" y2="0" width="0.127" layer="21"/>
<wire x1="20.32" y1="0" x2="20.32" y2="43.18" width="0.127" layer="21"/>
<wire x1="20.32" y1="43.18" x2="0" y2="43.18" width="0.127" layer="21"/>
<wire x1="0" y1="43.18" x2="0" y2="0" width="0.127" layer="21"/>
<wire x1="7.62" y1="38.1" x2="12.7" y2="38.1" width="0.127" layer="21"/>
<wire x1="12.7" y1="38.1" x2="12.7" y2="45.72" width="0.127" layer="21"/>
<wire x1="12.7" y1="45.72" x2="7.62" y2="45.72" width="0.127" layer="21"/>
<wire x1="7.62" y1="45.72" x2="7.62" y2="38.1" width="0.127" layer="21"/>
</package>
</packages>
</library>
<library name="SparkFun-Connectors" urn="urn:adsk.eagle:library:513">
<description>&lt;h3&gt;SparkFun Connectors&lt;/h3&gt;
This library contains electrically-functional connectors. 
&lt;br&gt;
&lt;br&gt;
We've spent an enormous amount of time creating and checking these footprints and parts, but it is &lt;b&gt; the end user's responsibility&lt;/b&gt; to ensure correctness and suitablity for a given componet or application. 
&lt;br&gt;
&lt;br&gt;If you enjoy using this library, please buy one of our products at &lt;a href=" www.sparkfun.com"&gt;SparkFun.com&lt;/a&gt;.
&lt;br&gt;
&lt;br&gt;
&lt;b&gt;Licensing:&lt;/b&gt; Creative Commons ShareAlike 4.0 International - https://creativecommons.org/licenses/by-sa/4.0/ 
&lt;br&gt;
&lt;br&gt;
You are welcome to use this library for commercial purposes. For attribution, we ask that when you begin to sell your device using our footprint, you email us with a link to the product being sold. We want bragging rights that we helped (in a very small part) to create your 8th world wonder. We would like the opportunity to feature your device on our homepage.</description>
<packages>
<package name="POWER_JACK_PTH" urn="urn:adsk.eagle:footprint:37872/1" library_version="1">
<description>&lt;h3&gt;DC Barrel Power Jack/Connector PTH&lt;/h3&gt;
5.5mm jack, 2.1mm center pole diameter
&lt;p&gt;Specifications:
&lt;ul&gt;&lt;li&gt;Pin count: 3&lt;/li&gt;
&lt;/ul&gt;&lt;/p&gt;
&lt;p&gt;&lt;a href=”https://www.sparkfun.com/datasheets/Prototyping/Barrel-Connector-PJ-202A.pdf”&gt;Datasheet referenced for footprint&lt;/a&gt;&lt;/p&gt;
&lt;p&gt;Example device(s):
&lt;ul&gt;&lt;li&gt;POWER_JACK&lt;/li&gt;
&lt;/ul&gt;&lt;/p&gt;</description>
<wire x1="4.5" y1="13.7" x2="2.4" y2="13.7" width="0.2032" layer="21"/>
<wire x1="-4.5" y1="3" x2="-4.5" y2="0.1" width="0.2032" layer="51"/>
<wire x1="4.5" y1="0.1" x2="4.5" y2="3" width="0.2032" layer="51"/>
<wire x1="4.5" y1="0.1" x2="-4.5" y2="0.1" width="0.2032" layer="51"/>
<wire x1="4.5" y1="3" x2="4.5" y2="8.3" width="0.2032" layer="21"/>
<wire x1="4.5" y1="13.7" x2="4.5" y2="13" width="0.2032" layer="21"/>
<wire x1="-4.5" y1="3" x2="-4.5" y2="13.7" width="0.2032" layer="21"/>
<wire x1="-4.5" y1="13.7" x2="-2.4" y2="13.7" width="0.2032" layer="21"/>
<wire x1="-4.5" y1="3" x2="4.5" y2="3" width="0.2032" layer="21"/>
<pad name="PWR" x="0" y="13.7" drill="2.9972" diameter="4.318"/>
<pad name="GND" x="0" y="7.7" drill="2.9972" diameter="4.318"/>
<pad name="GNDBREAK" x="4.7" y="10.7" drill="2.9972" diameter="4.318" rot="R90"/>
<text x="-1.3716" y="1.8288" size="0.6096" layer="25" font="vector" ratio="20">&gt;NAME</text>
<text x="-1.7526" y="0.8128" size="0.6096" layer="27" font="vector" ratio="20">&gt;VALUE</text>
</package>
</packages>
<packages3d>
<package3d name="POWER_JACK_PTH" urn="urn:adsk.eagle:package:38231/1" type="box" library_version="1">
<description>DC Barrel Power Jack/Connector PTH
5.5mm jack, 2.1mm center pole diameter
Specifications:
Pin count: 3

Datasheet referenced for footprint
Example device(s):
POWER_JACK
</description>
</package3d>
</packages3d>
</library>
<library name="SparkFun-Retired" urn="urn:adsk.eagle:library:533">
<description>&lt;h3&gt;SparkFun Electronics' Retired foot prints&lt;/h3&gt;
In this library you'll find all manner of retired footprints for resistors, capacitors, board names, ICs, etc., that are &lt;b&gt; no longer used&lt;/b&gt; in our catalog.
&lt;br&gt;
&lt;br&gt;
We've spent an enormous amount of time creating and checking these footprints and parts, but it is &lt;b&gt; the end user's responsibility&lt;/b&gt; to ensure correctness and suitablity for a given componet or application. 
&lt;br&gt;
&lt;br&gt;If you enjoy using this library, please buy one of our products at &lt;a href=" www.sparkfun.com"&gt;SparkFun.com&lt;/a&gt;.
&lt;br&gt;
&lt;br&gt;
&lt;b&gt;Licensing:&lt;/b&gt; Creative Commons ShareAlike 4.0 International - https://creativecommons.org/licenses/by-sa/4.0/ 
&lt;br&gt;
&lt;br&gt;
You are welcome to use this library for commercial purposes. For attribution, we ask that when you begin to sell your device using our footprint, you email us with a link to the product being sold. We want bragging rights that we helped (in a very small part) to create your 8th world wonder. We would like the opportunity to feature your device on our homepage.</description>
<packages>
<package name="1X02" library_version="1">
<description>&lt;h3&gt;Plated Through Hole&lt;/h3&gt;
&lt;p&gt;Specifications:
&lt;ul&gt;&lt;li&gt;Pin count:2&lt;/li&gt;
&lt;li&gt;Pin pitch:0.1"&lt;/li&gt;
&lt;/ul&gt;&lt;/p&gt;
&lt;p&gt;Example device(s):
&lt;ul&gt;&lt;li&gt;CONN_02&lt;/li&gt;
&lt;/ul&gt;&lt;/p&gt;</description>
<wire x1="-0.635" y1="1.27" x2="0.635" y2="1.27" width="0.2032" layer="21"/>
<wire x1="0.635" y1="1.27" x2="1.27" y2="0.635" width="0.2032" layer="21"/>
<wire x1="1.27" y1="-0.635" x2="0.635" y2="-1.27" width="0.2032" layer="21"/>
<wire x1="1.27" y1="0.635" x2="1.905" y2="1.27" width="0.2032" layer="21"/>
<wire x1="1.905" y1="1.27" x2="3.175" y2="1.27" width="0.2032" layer="21"/>
<wire x1="3.175" y1="1.27" x2="3.81" y2="0.635" width="0.2032" layer="21"/>
<wire x1="3.81" y1="-0.635" x2="3.175" y2="-1.27" width="0.2032" layer="21"/>
<wire x1="3.175" y1="-1.27" x2="1.905" y2="-1.27" width="0.2032" layer="21"/>
<wire x1="1.905" y1="-1.27" x2="1.27" y2="-0.635" width="0.2032" layer="21"/>
<wire x1="-1.27" y1="0.635" x2="-1.27" y2="-0.635" width="0.2032" layer="21"/>
<wire x1="-0.635" y1="1.27" x2="-1.27" y2="0.635" width="0.2032" layer="21"/>
<wire x1="-1.27" y1="-0.635" x2="-0.635" y2="-1.27" width="0.2032" layer="21"/>
<wire x1="0.635" y1="-1.27" x2="-0.635" y2="-1.27" width="0.2032" layer="21"/>
<wire x1="3.81" y1="0.635" x2="3.81" y2="-0.635" width="0.2032" layer="21"/>
<pad name="1" x="0" y="0" drill="1.016" diameter="1.8796" rot="R90"/>
<pad name="2" x="2.54" y="0" drill="1.016" diameter="1.8796" rot="R90"/>
<rectangle x1="2.286" y1="-0.254" x2="2.794" y2="0.254" layer="51"/>
<rectangle x1="-0.254" y1="-0.254" x2="0.254" y2="0.254" layer="51"/>
<text x="-1.27" y="1.397" size="0.6096" layer="25" font="vector" ratio="20">&gt;NAME</text>
<text x="-1.27" y="-2.032" size="0.6096" layer="27" font="vector" ratio="20">&gt;VALUE</text>
</package>
</packages>
</library>
</libraries>
<attributes>
</attributes>
<variantdefs>
</variantdefs>
<classes>
<class number="0" name="default" width="0" drill="0">
</class>
</classes>
<designrules name="default">
<description language="de">&lt;b&gt;EAGLE Design Rules&lt;/b&gt;
&lt;p&gt;
Die Standard-Design-Rules sind so gewählt, dass sie für 
die meisten Anwendungen passen. Sollte ihre Platine 
besondere Anforderungen haben, treffen Sie die erforderlichen
Einstellungen hier und speichern die Design Rules unter 
einem neuen Namen ab.</description>
<description language="en">&lt;b&gt;EAGLE Design Rules&lt;/b&gt;
&lt;p&gt;
The default Design Rules have been set to cover
a wide range of applications. Your particular design
may have different requirements, so please make the
necessary adjustments and save your customized
design rules under a new name.</description>
<param name="layerSetup" value="(1*16)"/>
<param name="mtCopper" value="0.035mm 0.035mm 0.035mm 0.035mm 0.035mm 0.035mm 0.035mm 0.035mm 0.035mm 0.035mm 0.035mm 0.035mm 0.035mm 0.035mm 0.035mm 0.035mm"/>
<param name="mtIsolate" value="1.5mm 0.15mm 0.2mm 0.15mm 0.2mm 0.15mm 0.2mm 0.15mm 0.2mm 0.15mm 0.2mm 0.15mm 0.2mm 0.15mm 0.2mm"/>
<param name="mdWireWire" value="6mil"/>
<param name="mdWirePad" value="6mil"/>
<param name="mdWireVia" value="6mil"/>
<param name="mdPadPad" value="6mil"/>
<param name="mdPadVia" value="6mil"/>
<param name="mdViaVia" value="6mil"/>
<param name="mdSmdPad" value="6mil"/>
<param name="mdSmdVia" value="6mil"/>
<param name="mdSmdSmd" value="6mil"/>
<param name="mdViaViaSameLayer" value="6mil"/>
<param name="mnLayersViaInSmd" value="2"/>
<param name="mdCopperDimension" value="40mil"/>
<param name="mdDrill" value="6mil"/>
<param name="mdSmdStop" value="0mil"/>
<param name="msWidth" value="6mil"/>
<param name="msDrill" value="0.35mm"/>
<param name="msMicroVia" value="9.99mm"/>
<param name="msBlindViaRatio" value="0.5"/>
<param name="rvPadTop" value="0.25"/>
<param name="rvPadInner" value="0.25"/>
<param name="rvPadBottom" value="0.25"/>
<param name="rvViaOuter" value="0.25"/>
<param name="rvViaInner" value="0.25"/>
<param name="rvMicroViaOuter" value="0.25"/>
<param name="rvMicroViaInner" value="0.25"/>
<param name="rlMinPadTop" value="10mil"/>
<param name="rlMaxPadTop" value="20mil"/>
<param name="rlMinPadInner" value="10mil"/>
<param name="rlMaxPadInner" value="20mil"/>
<param name="rlMinPadBottom" value="10mil"/>
<param name="rlMaxPadBottom" value="20mil"/>
<param name="rlMinViaOuter" value="8mil"/>
<param name="rlMaxViaOuter" value="20mil"/>
<param name="rlMinViaInner" value="8mil"/>
<param name="rlMaxViaInner" value="20mil"/>
<param name="rlMinMicroViaOuter" value="4mil"/>
<param name="rlMaxMicroViaOuter" value="20mil"/>
<param name="rlMinMicroViaInner" value="4mil"/>
<param name="rlMaxMicroViaInner" value="20mil"/>
<param name="psTop" value="-1"/>
<param name="psBottom" value="-1"/>
<param name="psFirst" value="-1"/>
<param name="psElongationLong" value="100"/>
<param name="psElongationOffset" value="100"/>
<param name="mvStopFrame" value="1"/>
<param name="mvCreamFrame" value="0"/>
<param name="mlMinStopFrame" value="4mil"/>
<param name="mlMaxStopFrame" value="4mil"/>
<param name="mlMinCreamFrame" value="0mil"/>
<param name="mlMaxCreamFrame" value="0mil"/>
<param name="mlViaStopLimit" value="0mil"/>
<param name="srRoundness" value="0"/>
<param name="srMinRoundness" value="0mil"/>
<param name="srMaxRoundness" value="0mil"/>
<param name="slThermalIsolate" value="10mil"/>
<param name="slThermalsForVias" value="0"/>
<param name="dpMaxLengthDifference" value="10mm"/>
<param name="dpGapFactor" value="2.5"/>
<param name="checkAngle" value="0"/>
<param name="checkFont" value="1"/>
<param name="checkRestrict" value="1"/>
<param name="checkStop" value="0"/>
<param name="checkValues" value="0"/>
<param name="useDiameter" value="13"/>
<param name="maxErrors" value="50"/>
</designrules>
<autorouter>
<pass name="Default">
<param name="RoutingGrid" value="50mil"/>
<param name="AutoGrid" value="1"/>
<param name="Efforts" value="0"/>
<param name="TopRouterVariant" value="1"/>
<param name="tpViaShape" value="round"/>
<param name="PrefDir.1" value="a"/>
<param name="PrefDir.2" value="0"/>
<param name="PrefDir.3" value="0"/>
<param name="PrefDir.4" value="0"/>
<param name="PrefDir.5" value="0"/>
<param name="PrefDir.6" value="0"/>
<param name="PrefDir.7" value="0"/>
<param name="PrefDir.8" value="0"/>
<param name="PrefDir.9" value="0"/>
<param name="PrefDir.10" value="0"/>
<param name="PrefDir.11" value="0"/>
<param name="PrefDir.12" value="0"/>
<param name="PrefDir.13" value="0"/>
<param name="PrefDir.14" value="0"/>
<param name="PrefDir.15" value="0"/>
<param name="PrefDir.16" value="a"/>
<param name="cfVia" value="8"/>
<param name="cfNonPref" value="5"/>
<param name="cfChangeDir" value="2"/>
<param name="cfOrthStep" value="2"/>
<param name="cfDiagStep" value="3"/>
<param name="cfExtdStep" value="0"/>
<param name="cfBonusStep" value="1"/>
<param name="cfMalusStep" value="1"/>
<param name="cfPadImpact" value="4"/>
<param name="cfSmdImpact" value="4"/>
<param name="cfBusImpact" value="0"/>
<param name="cfHugging" value="3"/>
<param name="cfAvoid" value="4"/>
<param name="cfPolygon" value="10"/>
<param name="cfBase.1" value="0"/>
<param name="cfBase.2" value="1"/>
<param name="cfBase.3" value="1"/>
<param name="cfBase.4" value="1"/>
<param name="cfBase.5" value="1"/>
<param name="cfBase.6" value="1"/>
<param name="cfBase.7" value="1"/>
<param name="cfBase.8" value="1"/>
<param name="cfBase.9" value="1"/>
<param name="cfBase.10" value="1"/>
<param name="cfBase.11" value="1"/>
<param name="cfBase.12" value="1"/>
<param name="cfBase.13" value="1"/>
<param name="cfBase.14" value="1"/>
<param name="cfBase.15" value="1"/>
<param name="cfBase.16" value="0"/>
<param name="mnVias" value="20"/>
<param name="mnSegments" value="9999"/>
<param name="mnExtdSteps" value="9999"/>
<param name="mnRipupLevel" value="10"/>
<param name="mnRipupSteps" value="100"/>
<param name="mnRipupTotal" value="100"/>
</pass>
<pass name="Follow-me" refer="Default" active="yes">
</pass>
<pass name="Busses" refer="Default" active="yes">
<param name="cfNonPref" value="4"/>
<param name="cfBusImpact" value="4"/>
<param name="cfHugging" value="0"/>
<param name="mnVias" value="0"/>
</pass>
<pass name="Route" refer="Default" active="yes">
</pass>
<pass name="Optimize1" refer="Default" active="yes">
<param name="cfVia" value="99"/>
<param name="cfExtdStep" value="10"/>
<param name="cfHugging" value="1"/>
<param name="mnExtdSteps" value="1"/>
<param name="mnRipupLevel" value="0"/>
</pass>
<pass name="Optimize2" refer="Optimize1" active="yes">
<param name="cfNonPref" value="0"/>
<param name="cfChangeDir" value="6"/>
<param name="cfExtdStep" value="0"/>
<param name="cfBonusStep" value="2"/>
<param name="cfMalusStep" value="2"/>
<param name="cfPadImpact" value="2"/>
<param name="cfSmdImpact" value="2"/>
<param name="cfHugging" value="0"/>
</pass>
<pass name="Optimize3" refer="Optimize2" active="yes">
<param name="cfChangeDir" value="8"/>
<param name="cfPadImpact" value="0"/>
<param name="cfSmdImpact" value="0"/>
</pass>
<pass name="Optimize4" refer="Optimize3" active="yes">
<param name="cfChangeDir" value="25"/>
</pass>
</autorouter>
<elements>
<element name="U$1" library="SpO2_Sensor" package="MAX3010X" value="MAX3010X" x="31" y="25.4" rot="R270"/>
<element name="U$2" library="SpO2_Sensor" package="OLED" value="OLED" x="-6.93" y="10.16" rot="R180"/>
<element name="U$3" library="Arduino-clone" package="NANO" value="NANO" x="6.35" y="3.81" rot="MR90"/>
<element name="J1" library="SparkFun-Connectors" library_urn="urn:adsk.eagle:library:513" package="POWER_JACK_PTH" package3d_urn="urn:adsk.eagle:package:38231/1" value="POWER_JACK" x="1.27" y="-2.54" rot="MR0">
<attribute name="PROD_ID" value="CONN-08197" x="1.27" y="-2.54" size="1.778" layer="28" rot="MR0" display="off"/>
</element>
<element name="JP1" library="SparkFun-Retired" library_urn="urn:adsk.eagle:library:533" package="1X02" value="" x="3.81" y="17.78" rot="R180"/>
</elements>
<signals>
<signal name="GND">
<contactref element="U$3" pad="GND"/>
<contactref element="U$2" pad="GND"/>
<contactref element="U$1" pad="GND"/>
<contactref element="U$3" pad="GND1"/>
<wire x1="11.43" y1="6.35" x2="11.43" y2="8.89" width="0.508" layer="16"/>
<wire x1="11.43" y1="8.89" x2="16.51" y2="13.97" width="0.508" layer="16"/>
<wire x1="16.51" y1="13.97" x2="16.51" y2="21.59" width="0.508" layer="16"/>
<polygon width="0.1524" layer="16">
<vertex x="-12.7" y="29.21"/>
<vertex x="-12.7" y="-1.27"/>
<vertex x="54.61" y="-1.27"/>
<vertex x="54.61" y="29.21"/>
</polygon>
<contactref element="J1" pad="GNDBREAK"/>
<contactref element="J1" pad="GND"/>
<wire x1="-6.93" y1="19.74" x2="-6.93" y2="17.78" width="0.5" layer="16"/>
<wire x1="13.22" y1="25.4" x2="-1.27" y2="25.4" width="0.5" layer="16"/>
<wire x1="-1.27" y1="25.4" x2="-6.93" y2="19.74" width="0.5" layer="16"/>
<wire x1="1.27" y1="5.16" x2="-0.43" y2="5.16" width="0.25" layer="16"/>
<wire x1="-0.43" y1="5.16" x2="-3.43" y2="8.16" width="0.25" layer="16"/>
<wire x1="-3.43" y1="8.16" x2="-3.81" y2="8.54" width="0.25" layer="16"/>
<wire x1="-3.81" y1="8.54" x2="-3.81" y2="16.51" width="0.25" layer="16"/>
<wire x1="-3.81" y1="16.51" x2="-5.08" y2="17.78" width="0.25" layer="16"/>
<wire x1="-5.08" y1="17.78" x2="-6.93" y2="17.78" width="0.25" layer="16"/>
<wire x1="16.51" y1="21.59" x2="16.51" y2="22.86" width="0.5" layer="16"/>
<wire x1="13.22" y1="25.4" x2="16.51" y2="22.11" width="0.5" layer="16"/>
<wire x1="16.51" y1="22.11" x2="16.51" y2="21.59" width="0.5" layer="16"/>
</signal>
<signal name="5V">
<contactref element="U$3" pad="5V"/>
<contactref element="U$2" pad="VCC"/>
<wire x1="-6.93" y1="15.24" x2="-3.81" y2="15.24" width="0.2" layer="1"/>
<wire x1="-3.81" y1="15.24" x2="-1.27" y2="17.78" width="0.2" layer="1"/>
<wire x1="-1.27" y1="17.78" x2="-1.27" y2="20.32" width="0.2" layer="1"/>
<wire x1="-1.27" y1="20.32" x2="0" y2="21.59" width="0.2" layer="1"/>
<wire x1="6.35" y1="21.59" x2="10.16" y2="17.78" width="0.2" layer="1"/>
<wire x1="10.16" y1="17.78" x2="13.97" y2="17.78" width="0.2" layer="1"/>
<wire x1="13.97" y1="17.78" x2="16.51" y2="15.24" width="0.2" layer="1"/>
<wire x1="16.51" y1="15.24" x2="16.51" y2="6.35" width="0.2" layer="1"/>
<wire x1="0" y1="21.59" x2="6.35" y2="21.59" width="0.2" layer="1"/>
</signal>
<signal name="SCL">
<contactref element="U$1" pad="SCL"/>
<contactref element="U$3" pad="A5"/>
<contactref element="U$2" pad="SCL"/>
<wire x1="20.84" y1="2.54" x2="21.215" y2="2.915" width="0.254" layer="1"/>
<wire x1="21.215" y1="2.915" x2="24.13" y2="5.83" width="0.254" layer="1"/>
<wire x1="24.13" y1="5.83" x2="24.13" y2="6.35" width="0.254" layer="1"/>
<wire x1="-6.93" y1="12.7" x2="-8.89" y2="10.74" width="0.25" layer="1"/>
<wire x1="-8.89" y1="10.74" x2="-8.89" y2="5.08" width="0.25" layer="1"/>
<wire x1="-8.89" y1="5.08" x2="-5.08" y2="1.27" width="0.25" layer="1"/>
<wire x1="-5.08" y1="1.27" x2="20.32" y2="1.27" width="0.25" layer="1"/>
<wire x1="20.32" y1="1.27" x2="21.215" y2="2.165" width="0.25" layer="1"/>
<wire x1="21.215" y1="2.165" x2="21.215" y2="2.915" width="0.25" layer="1"/>
</signal>
<signal name="SDA">
<contactref element="U$2" pad="SDA"/>
<contactref element="U$1" pad="SDA"/>
<contactref element="U$3" pad="A4"/>
<wire x1="26.67" y1="6.35" x2="24.13" y2="8.89" width="0.254" layer="1"/>
<wire x1="24.13" y1="8.89" x2="21.59" y2="8.89" width="0.254" layer="1"/>
<wire x1="21.59" y1="8.89" x2="20.32" y2="7.62" width="0.254" layer="1"/>
<wire x1="20.32" y1="7.62" x2="20.32" y2="5.08" width="0.254" layer="1"/>
<wire x1="18.3" y1="3.06" x2="18.3" y2="2.54" width="0.254" layer="1"/>
<wire x1="20.32" y1="5.08" x2="18.3" y2="3.06" width="0.254" layer="1"/>
<wire x1="-6.93" y1="10.16" x2="-6.93" y2="6.93" width="0.2" layer="1"/>
<wire x1="-6.93" y1="6.93" x2="-2.54" y2="2.54" width="0.2" layer="1"/>
<wire x1="11.43" y1="2.54" x2="12.7" y2="3.81" width="0.2" layer="1"/>
<wire x1="17.03" y1="3.81" x2="18.3" y2="2.54" width="0.2" layer="1"/>
<wire x1="-2.54" y1="2.54" x2="11.43" y2="2.54" width="0.2" layer="1"/>
<wire x1="12.7" y1="3.81" x2="17.03" y2="3.81" width="0.2" layer="1"/>
</signal>
<signal name="3V3">
<contactref element="U$3" pad="3.3V"/>
<contactref element="U$1" pad="3V3"/>
<wire x1="15.76" y1="25.4" x2="17.03" y2="24.13" width="0.508" layer="1"/>
<wire x1="17.03" y1="24.13" x2="45.72" y2="24.13" width="0.508" layer="1"/>
<wire x1="45.72" y1="24.13" x2="46.99" y2="22.86" width="0.508" layer="1"/>
<wire x1="46.99" y1="22.86" x2="46.99" y2="19.05" width="0.508" layer="1"/>
<wire x1="41.91" y1="13.97" x2="41.91" y2="6.35" width="0.508" layer="1"/>
<wire x1="46.99" y1="19.05" x2="41.91" y2="13.97" width="0.508" layer="1"/>
</signal>
<signal name="9V">
<contactref element="J1" pad="PWR"/>
<contactref element="JP1" pad="2"/>
<wire x1="1.27" y1="17.78" x2="1.27" y2="11.16" width="1" layer="1"/>
<wire x1="1.27" y1="10.16" x2="1.27" y2="11.16" width="1" layer="1"/>
</signal>
<signal name="INT">
<contactref element="U$3" pad="D3"/>
<contactref element="U$1" pad="INT"/>
<wire x1="28.46" y1="2.54" x2="28.46" y2="3.29" width="0.254" layer="1"/>
<wire x1="28.46" y1="3.29" x2="27.94" y2="3.81" width="0.254" layer="1"/>
<wire x1="27.94" y1="3.81" x2="27.94" y2="13.97" width="0.254" layer="1"/>
<wire x1="27.94" y1="13.97" x2="21.59" y2="20.32" width="0.254" layer="1"/>
<wire x1="21.59" y1="20.32" x2="21.59" y2="21.59" width="0.254" layer="1"/>
</signal>
<signal name="VIN">
<contactref element="U$3" pad="RAW"/>
<contactref element="JP1" pad="1"/>
<wire x1="3.81" y1="17.78" x2="5.08" y2="16.51" width="1" layer="1"/>
<wire x1="5.08" y1="16.51" x2="5.08" y2="8.89" width="1" layer="1"/>
<wire x1="5.08" y1="8.89" x2="7.62" y2="6.35" width="1" layer="1"/>
<wire x1="7.62" y1="6.35" x2="8.89" y2="6.35" width="1" layer="1"/>
</signal>
</signals>
</board>
</drawing>
<compatibility>
<note version="6.3" minversion="6.2.2" severity="warning">
Since Version 6.2.2 text objects can contain more than one line,
which will not be processed correctly with this version.
</note>
<note version="8.2" severity="warning">
Since Version 8.2, EAGLE supports online libraries. The ids
of those online libraries will not be understood (or retained)
with this version.
</note>
<note version="8.3" severity="warning">
Since Version 8.3, EAGLE supports URNs for individual library
assets (packages, symbols, and devices). The URNs of those assets
will not be understood (or retained) with this version.
</note>
<note version="8.3" severity="warning">
Since Version 8.3, EAGLE supports the association of 3D packages
with devices in libraries, schematics, and board files. Those 3D
packages will not be understood (or retained) with this version.
</note>
</compatibility>
</eagle>
