<?xml version="1.0" encoding="utf-8"?>
<!DOCTYPE eagle SYSTEM "eagle.dtd">
<eagle version="8.6.0">
<drawing>
<settings>
<setting alwaysvectorfont="no"/>
<setting verticaltext="up"/>
</settings>
<grid distance="0.1" unitdist="inch" unit="inch" style="lines" multiple="1" display="no" altdistance="0.01" altunitdist="inch" altunit="inch"/>
<layers>
<layer number="1" name="Top" color="4" fill="1" visible="no" active="no"/>
<layer number="2" name="Route2" color="1" fill="3" visible="no" active="no"/>
<layer number="3" name="Route3" color="4" fill="3" visible="no" active="no"/>
<layer number="4" name="Route4" color="1" fill="4" visible="no" active="no"/>
<layer number="5" name="Route5" color="4" fill="4" visible="no" active="no"/>
<layer number="6" name="Route6" color="1" fill="8" visible="no" active="no"/>
<layer number="7" name="Route7" color="4" fill="8" visible="no" active="no"/>
<layer number="8" name="Route8" color="1" fill="2" visible="no" active="no"/>
<layer number="9" name="Route9" color="4" fill="2" visible="no" active="no"/>
<layer number="10" name="Route10" color="1" fill="7" visible="no" active="no"/>
<layer number="11" name="Route11" color="4" fill="7" visible="no" active="no"/>
<layer number="12" name="Route12" color="1" fill="5" visible="no" active="no"/>
<layer number="13" name="Route13" color="4" fill="5" visible="no" active="no"/>
<layer number="14" name="Route14" color="1" fill="6" visible="no" active="no"/>
<layer number="15" name="Route15" color="4" fill="6" visible="no" active="no"/>
<layer number="16" name="Bottom" color="1" fill="1" visible="no" active="no"/>
<layer number="17" name="Pads" color="2" fill="1" visible="no" active="no"/>
<layer number="18" name="Vias" color="2" fill="1" visible="no" active="no"/>
<layer number="19" name="Unrouted" color="6" fill="1" visible="no" active="no"/>
<layer number="20" name="Dimension" color="24" fill="1" visible="no" active="no"/>
<layer number="21" name="tPlace" color="7" fill="1" visible="no" active="no"/>
<layer number="22" name="bPlace" color="7" fill="1" visible="no" active="no"/>
<layer number="23" name="tOrigins" color="15" fill="1" visible="no" active="no"/>
<layer number="24" name="bOrigins" color="15" fill="1" visible="no" active="no"/>
<layer number="25" name="tNames" color="7" fill="1" visible="no" active="no"/>
<layer number="26" name="bNames" color="7" fill="1" visible="no" active="no"/>
<layer number="27" name="tValues" color="7" fill="1" visible="no" active="no"/>
<layer number="28" name="bValues" color="7" fill="1" visible="no" active="no"/>
<layer number="29" name="tStop" color="7" fill="3" visible="no" active="no"/>
<layer number="30" name="bStop" color="7" fill="6" visible="no" active="no"/>
<layer number="31" name="tCream" color="7" fill="4" visible="no" active="no"/>
<layer number="32" name="bCream" color="7" fill="5" visible="no" active="no"/>
<layer number="33" name="tFinish" color="6" fill="3" visible="no" active="no"/>
<layer number="34" name="bFinish" color="6" fill="6" visible="no" active="no"/>
<layer number="35" name="tGlue" color="7" fill="4" visible="no" active="no"/>
<layer number="36" name="bGlue" color="7" fill="5" visible="no" active="no"/>
<layer number="37" name="tTest" color="7" fill="1" visible="no" active="no"/>
<layer number="38" name="bTest" color="7" fill="1" visible="no" active="no"/>
<layer number="39" name="tKeepout" color="4" fill="11" visible="no" active="no"/>
<layer number="40" name="bKeepout" color="1" fill="11" visible="no" active="no"/>
<layer number="41" name="tRestrict" color="4" fill="10" visible="no" active="no"/>
<layer number="42" name="bRestrict" color="1" fill="10" visible="no" active="no"/>
<layer number="43" name="vRestrict" color="2" fill="10" visible="no" active="no"/>
<layer number="44" name="Drills" color="7" fill="1" visible="no" active="no"/>
<layer number="45" name="Holes" color="7" fill="1" visible="no" active="no"/>
<layer number="46" name="Milling" color="3" fill="1" visible="no" active="no"/>
<layer number="47" name="Measures" color="7" fill="1" visible="no" active="no"/>
<layer number="48" name="Document" color="7" fill="1" visible="no" active="no"/>
<layer number="49" name="Reference" color="7" fill="1" visible="no" active="no"/>
<layer number="50" name="dxf" color="7" fill="1" visible="no" active="no"/>
<layer number="51" name="tDocu" color="7" fill="1" visible="no" active="no"/>
<layer number="52" name="bDocu" color="7" fill="1" visible="no" active="no"/>
<layer number="53" name="tGND_GNDA" color="7" fill="9" visible="no" active="no"/>
<layer number="54" name="bGND_GNDA" color="1" fill="9" visible="no" active="no"/>
<layer number="56" name="wert" color="7" fill="1" visible="no" active="no"/>
<layer number="57" name="tCAD" color="7" fill="1" visible="no" active="no"/>
<layer number="59" name="tCarbon" color="7" fill="1" visible="no" active="no"/>
<layer number="60" name="bCarbon" color="7" fill="1" visible="no" active="no"/>
<layer number="88" name="SimResults" color="9" fill="1" visible="yes" active="yes"/>
<layer number="89" name="SimProbes" color="9" fill="1" visible="yes" active="yes"/>
<layer number="90" name="Modules" color="5" fill="1" visible="yes" active="yes"/>
<layer number="91" name="Nets" color="2" fill="1" visible="yes" active="yes"/>
<layer number="92" name="Busses" color="1" fill="1" visible="yes" active="yes"/>
<layer number="93" name="Pins" color="2" fill="1" visible="no" active="yes"/>
<layer number="94" name="Symbols" color="4" fill="1" visible="yes" active="yes"/>
<layer number="95" name="Names" color="7" fill="1" visible="yes" active="yes"/>
<layer number="96" name="Values" color="7" fill="1" visible="yes" active="yes"/>
<layer number="97" name="Info" color="7" fill="1" visible="yes" active="yes"/>
<layer number="98" name="Guide" color="6" fill="1" visible="yes" active="yes"/>
<layer number="99" name="SpiceOrder" color="7" fill="1" visible="yes" active="yes"/>
<layer number="100" name="Muster" color="7" fill="1" visible="no" active="no"/>
<layer number="101" name="Patch_Top" color="12" fill="4" visible="yes" active="yes"/>
<layer number="102" name="Vscore" color="7" fill="1" visible="yes" active="yes"/>
<layer number="103" name="tMap" color="7" fill="1" visible="yes" active="yes"/>
<layer number="104" name="Name" color="16" fill="1" visible="yes" active="yes"/>
<layer number="105" name="tPlate" color="7" fill="1" visible="yes" active="yes"/>
<layer number="106" name="bPlate" color="7" fill="1" visible="yes" active="yes"/>
<layer number="107" name="Crop" color="7" fill="1" visible="yes" active="yes"/>
<layer number="108" name="tplace-old" color="10" fill="1" visible="yes" active="yes"/>
<layer number="109" name="ref-old" color="11" fill="1" visible="yes" active="yes"/>
<layer number="110" name="fp0" color="7" fill="1" visible="yes" active="yes"/>
<layer number="111" name="LPC17xx" color="7" fill="1" visible="yes" active="yes"/>
<layer number="112" name="tSilk" color="7" fill="1" visible="yes" active="yes"/>
<layer number="113" name="IDFDebug" color="4" fill="1" visible="yes" active="yes"/>
<layer number="114" name="Badge_Outline" color="7" fill="1" visible="yes" active="yes"/>
<layer number="115" name="ReferenceISLANDS" color="7" fill="1" visible="yes" active="yes"/>
<layer number="116" name="Patch_BOT" color="9" fill="4" visible="yes" active="yes"/>
<layer number="118" name="Rect_Pads" color="7" fill="1" visible="yes" active="yes"/>
<layer number="121" name="_tsilk" color="7" fill="1" visible="yes" active="yes"/>
<layer number="122" name="_bsilk" color="7" fill="1" visible="yes" active="yes"/>
<layer number="123" name="tTestmark" color="7" fill="1" visible="yes" active="yes"/>
<layer number="124" name="bTestmark" color="7" fill="1" visible="yes" active="yes"/>
<layer number="125" name="_tNames" color="7" fill="1" visible="yes" active="yes"/>
<layer number="126" name="_bNames" color="7" fill="1" visible="yes" active="yes"/>
<layer number="127" name="_tValues" color="7" fill="1" visible="yes" active="yes"/>
<layer number="128" name="_bValues" color="7" fill="1" visible="yes" active="yes"/>
<layer number="129" name="Mask" color="7" fill="1" visible="yes" active="yes"/>
<layer number="131" name="tAdjust" color="7" fill="1" visible="yes" active="yes"/>
<layer number="132" name="bAdjust" color="7" fill="1" visible="yes" active="yes"/>
<layer number="144" name="Drill_legend" color="7" fill="1" visible="yes" active="yes"/>
<layer number="150" name="Notes" color="7" fill="1" visible="yes" active="yes"/>
<layer number="151" name="HeatSink" color="7" fill="1" visible="yes" active="yes"/>
<layer number="152" name="_bDocu" color="7" fill="1" visible="yes" active="yes"/>
<layer number="153" name="FabDoc1" color="7" fill="1" visible="yes" active="yes"/>
<layer number="154" name="FabDoc2" color="7" fill="1" visible="yes" active="yes"/>
<layer number="155" name="FabDoc3" color="7" fill="1" visible="yes" active="yes"/>
<layer number="199" name="Contour" color="7" fill="1" visible="yes" active="yes"/>
<layer number="200" name="200bmp" color="1" fill="10" visible="yes" active="yes"/>
<layer number="201" name="201bmp" color="2" fill="10" visible="yes" active="yes"/>
<layer number="202" name="202bmp" color="3" fill="10" visible="yes" active="yes"/>
<layer number="203" name="203bmp" color="4" fill="10" visible="yes" active="yes"/>
<layer number="204" name="204bmp" color="5" fill="10" visible="yes" active="yes"/>
<layer number="205" name="205bmp" color="6" fill="10" visible="yes" active="yes"/>
<layer number="206" name="206bmp" color="7" fill="10" visible="yes" active="yes"/>
<layer number="207" name="207bmp" color="8" fill="10" visible="yes" active="yes"/>
<layer number="208" name="208bmp" color="9" fill="10" visible="yes" active="yes"/>
<layer number="209" name="209bmp" color="7" fill="1" visible="yes" active="yes"/>
<layer number="210" name="210bmp" color="7" fill="1" visible="yes" active="yes"/>
<layer number="211" name="211bmp" color="7" fill="1" visible="yes" active="yes"/>
<layer number="212" name="212bmp" color="7" fill="1" visible="yes" active="yes"/>
<layer number="213" name="213bmp" color="7" fill="1" visible="yes" active="yes"/>
<layer number="214" name="214bmp" color="7" fill="1" visible="yes" active="yes"/>
<layer number="215" name="215bmp" color="7" fill="1" visible="yes" active="yes"/>
<layer number="216" name="216bmp" color="7" fill="1" visible="yes" active="yes"/>
<layer number="217" name="217bmp" color="18" fill="1" visible="no" active="no"/>
<layer number="218" name="218bmp" color="19" fill="1" visible="no" active="no"/>
<layer number="219" name="219bmp" color="20" fill="1" visible="no" active="no"/>
<layer number="220" name="220bmp" color="21" fill="1" visible="no" active="no"/>
<layer number="221" name="221bmp" color="22" fill="1" visible="no" active="no"/>
<layer number="222" name="222bmp" color="23" fill="1" visible="no" active="no"/>
<layer number="223" name="223bmp" color="24" fill="1" visible="no" active="no"/>
<layer number="224" name="224bmp" color="25" fill="1" visible="no" active="no"/>
<layer number="225" name="225bmp" color="7" fill="1" visible="yes" active="yes"/>
<layer number="226" name="226bmp" color="7" fill="1" visible="yes" active="yes"/>
<layer number="227" name="227bmp" color="7" fill="1" visible="yes" active="yes"/>
<layer number="228" name="228bmp" color="7" fill="1" visible="yes" active="yes"/>
<layer number="229" name="229bmp" color="7" fill="1" visible="yes" active="yes"/>
<layer number="230" name="230bmp" color="7" fill="1" visible="yes" active="yes"/>
<layer number="231" name="231bmp" color="7" fill="1" visible="yes" active="yes"/>
<layer number="232" name="Eagle3D_PG2" color="7" fill="1" visible="yes" active="yes"/>
<layer number="233" name="Eagle3D_PG3" color="7" fill="1" visible="yes" active="yes"/>
<layer number="248" name="Housing" color="7" fill="1" visible="yes" active="yes"/>
<layer number="249" name="Edge" color="7" fill="1" visible="yes" active="yes"/>
<layer number="250" name="Descript" color="3" fill="1" visible="no" active="no"/>
<layer number="251" name="SMDround" color="12" fill="11" visible="no" active="no"/>
<layer number="254" name="cooling" color="7" fill="1" visible="yes" active="yes"/>
<layer number="255" name="routoute" color="7" fill="1" visible="yes" active="yes"/>
</layers>
<schematic xreflabel="%F%N/%S" xrefpart="/%S.%C%R">
<libraries>
<library name="SpO2_Sensor">
<packages>
<package name="MAX3010X">
<pad name="P$1" x="0" y="0" drill="1" shape="square"/>
<pad name="P$2" x="0" y="-2.54" drill="1"/>
<pad name="P$3" x="0" y="-5.08" drill="1"/>
<pad name="P$4" x="0" y="-7.62" drill="1"/>
<pad name="P$5" x="0" y="-10.16" drill="1"/>
<pad name="P$6" x="0" y="-12.7" drill="1"/>
<pad name="3V3" x="0" y="-15.24" drill="1"/>
<pad name="GND" x="0" y="-17.78" drill="1"/>
<pad name="GND2" x="22.86" y="-17.78" drill="1"/>
<pad name="5V" x="22.86" y="-15.24" drill="1"/>
<pad name="SDA" x="22.86" y="-12.7" drill="1"/>
<pad name="SCL" x="22.86" y="-10.16" drill="1"/>
<pad name="P$13" x="22.86" y="-7.62" drill="1"/>
<pad name="P$14" x="22.86" y="-5.08" drill="1"/>
<pad name="INT" x="22.86" y="-2.54" drill="1"/>
<pad name="P$16" x="22.86" y="0" drill="1"/>
<wire x1="24.13" y1="-21.59" x2="24.13" y2="15.24" width="0.127" layer="21"/>
<wire x1="-1.27" y1="-21.9" x2="-1.27" y2="15.24" width="0.127" layer="21"/>
<wire x1="-1.27" y1="-21.9" x2="24.13" y2="-21.9" width="0.127" layer="21"/>
<wire x1="8.89" y1="17.78" x2="12.7" y2="17.78" width="0.127" layer="21"/>
<wire x1="12.7" y1="17.78" x2="12.7" y2="10.16" width="0.127" layer="21"/>
<wire x1="12.7" y1="10.16" x2="8.89" y2="10.16" width="0.127" layer="21"/>
<wire x1="8.89" y1="10.16" x2="8.89" y2="17.78" width="0.127" layer="21"/>
<wire x1="-1.27" y1="15.24" x2="11.43" y2="19.05" width="0.127" layer="21" curve="-136.930587"/>
<wire x1="24.13" y1="15.24" x2="11.43" y2="19.05" width="0.127" layer="22" curve="136.930587"/>
<wire x1="24.13" y1="15.24" x2="11.43" y2="19.05" width="0.127" layer="22" curve="136.930587"/>
</package>
<package name="OLED">
<pad name="SDA" x="0" y="0" drill="1" shape="square"/>
<pad name="SCL" x="0" y="-2.54" drill="1"/>
<pad name="VCC" x="0" y="-5.08" drill="1"/>
<pad name="GND" x="0" y="-7.62" drill="1"/>
<wire x1="-1.27" y1="1.27" x2="-1.27" y2="-8.89" width="0.127" layer="21"/>
<wire x1="-1.27" y1="-8.89" x2="3.81" y2="-8.89" width="0.127" layer="21"/>
<wire x1="3.81" y1="-8.89" x2="3.81" y2="1.27" width="0.127" layer="21"/>
<wire x1="3.81" y1="1.27" x2="-1.27" y2="1.27" width="0.127" layer="21"/>
</package>
</packages>
<symbols>
<symbol name="MAX3010X">
<pin name="P$1" x="0" y="0" length="middle"/>
<pin name="P$2" x="0" y="-5.08" length="middle"/>
<pin name="P$3" x="0" y="-10.16" length="middle"/>
<pin name="P$4" x="0" y="-15.24" length="middle"/>
<pin name="P$5" x="0" y="-20.32" length="middle"/>
<pin name="P$6" x="0" y="-25.4" length="middle"/>
<pin name="3V3" x="0" y="-30.48" length="middle"/>
<pin name="GND" x="0" y="-35.56" length="middle"/>
<pin name="GND2" x="33.02" y="-35.56" length="middle" rot="R180"/>
<pin name="5V" x="33.02" y="-30.48" length="middle" rot="R180"/>
<pin name="SDA" x="33.02" y="-25.4" length="middle" rot="R180"/>
<pin name="SCL" x="33.02" y="-20.32" length="middle" rot="R180"/>
<pin name="P$13" x="33.02" y="-15.24" length="middle" rot="R180"/>
<pin name="P$14" x="33.02" y="-10.16" length="middle" rot="R180"/>
<pin name="P$15" x="33.02" y="-5.08" length="middle" rot="R180"/>
<pin name="P$16" x="33.02" y="0" length="middle" rot="R180"/>
<wire x1="5.08" y1="2.54" x2="5.08" y2="-38.1" width="0.254" layer="94"/>
<wire x1="5.08" y1="-38.1" x2="27.94" y2="-38.1" width="0.254" layer="94"/>
<wire x1="27.94" y1="-38.1" x2="27.94" y2="2.54" width="0.254" layer="94"/>
<wire x1="27.94" y1="2.54" x2="5.08" y2="2.54" width="0.254" layer="94"/>
</symbol>
<symbol name="OLED">
<pin name="SDA" x="-43.18" y="17.78" length="middle"/>
<pin name="SCL" x="-43.18" y="12.7" length="middle"/>
<pin name="VCC" x="-43.18" y="7.62" length="middle"/>
<pin name="GND" x="-43.18" y="2.54" length="middle"/>
<wire x1="-38.1" y1="20.32" x2="-38.1" y2="0" width="0.254" layer="94"/>
<wire x1="-38.1" y1="0" x2="-2.54" y2="0" width="0.254" layer="94"/>
<wire x1="-2.54" y1="0" x2="-2.54" y2="20.32" width="0.254" layer="94"/>
<wire x1="-2.54" y1="20.32" x2="-38.1" y2="20.32" width="0.254" layer="94"/>
<text x="-22.86" y="10.16" size="1.778" layer="94">OLED</text>
</symbol>
</symbols>
<devicesets>
<deviceset name="MAX3010X">
<gates>
<gate name="G$1" symbol="MAX3010X" x="0" y="35.56"/>
</gates>
<devices>
<device name="" package="MAX3010X">
<connects>
<connect gate="G$1" pin="3V3" pad="3V3"/>
<connect gate="G$1" pin="5V" pad="5V"/>
<connect gate="G$1" pin="GND" pad="GND"/>
<connect gate="G$1" pin="GND2" pad="GND2"/>
<connect gate="G$1" pin="P$1" pad="P$1"/>
<connect gate="G$1" pin="P$13" pad="P$13"/>
<connect gate="G$1" pin="P$14" pad="P$14"/>
<connect gate="G$1" pin="P$15" pad="INT"/>
<connect gate="G$1" pin="P$16" pad="P$16"/>
<connect gate="G$1" pin="P$2" pad="P$2"/>
<connect gate="G$1" pin="P$3" pad="P$3"/>
<connect gate="G$1" pin="P$4" pad="P$4"/>
<connect gate="G$1" pin="P$5" pad="P$5"/>
<connect gate="G$1" pin="P$6" pad="P$6"/>
<connect gate="G$1" pin="SCL" pad="SCL"/>
<connect gate="G$1" pin="SDA" pad="SDA"/>
</connects>
<technologies>
<technology name=""/>
</technologies>
</device>
</devices>
</deviceset>
<deviceset name="OLED">
<gates>
<gate name="G$1" symbol="OLED" x="43.18" y="-2.54"/>
</gates>
<devices>
<device name="" package="OLED">
<connects>
<connect gate="G$1" pin="GND" pad="GND"/>
<connect gate="G$1" pin="SCL" pad="SCL"/>
<connect gate="G$1" pin="SDA" pad="SDA"/>
<connect gate="G$1" pin="VCC" pad="VCC"/>
</connects>
<technologies>
<technology name=""/>
</technologies>
</device>
</devices>
</deviceset>
</devicesets>
</library>
<library name="Arduino-clone">
<description>Arduino Clone pinheaders
By cl@xganon.com
http://www.xganon.com</description>
<packages>
<package name="NANO">
<pad name="TX0" x="17.78" y="2.54" drill="1" shape="long"/>
<pad name="RX1" x="17.78" y="5.08" drill="1" shape="long"/>
<pad name="RST1" x="17.78" y="7.62" drill="1" shape="long"/>
<pad name="GND1" x="17.78" y="10.16" drill="1" shape="long"/>
<pad name="D2" x="17.78" y="12.7" drill="1" shape="long"/>
<pad name="D3" x="17.78" y="15.24" drill="1" shape="long"/>
<pad name="D4" x="17.78" y="17.78" drill="1" shape="long"/>
<pad name="D5" x="17.78" y="20.32" drill="1" shape="long"/>
<pad name="D6" x="17.78" y="22.86" drill="1" shape="long"/>
<pad name="D7" x="17.78" y="25.4" drill="1" shape="long"/>
<pad name="D8" x="17.78" y="27.94" drill="1" shape="long"/>
<pad name="D9" x="17.78" y="30.48" drill="1" shape="long"/>
<pad name="RAW" x="2.54" y="2.54" drill="1" shape="long"/>
<pad name="GND" x="2.54" y="5.08" drill="1" shape="long"/>
<pad name="RST" x="2.54" y="7.62" drill="1" shape="long"/>
<pad name="A3" x="2.54" y="22.86" drill="1" shape="long"/>
<pad name="A2" x="2.54" y="25.4" drill="1" shape="long"/>
<pad name="A1" x="2.54" y="27.94" drill="1" shape="long"/>
<pad name="A0" x="2.54" y="30.48" drill="1" shape="long"/>
<pad name="D13" x="2.54" y="38.1" drill="1" shape="long"/>
<pad name="D12" x="17.78" y="38.1" drill="1" shape="long"/>
<pad name="D11" x="17.78" y="35.56" drill="1" shape="long"/>
<pad name="D10" x="17.78" y="33.02" drill="1" shape="long"/>
<pad name="3.3V" x="2.54" y="35.56" drill="1" shape="long" rot="R180"/>
<pad name="AREF" x="2.54" y="33.02" drill="1" shape="long" rot="R180"/>
<pad name="5V" x="2.54" y="10.16" drill="1" shape="long"/>
<pad name="ICSP2" x="7.62" y="3.81" drill="0.8" rot="R90"/>
<pad name="ICSP4" x="10.16" y="3.81" drill="0.8" rot="R90"/>
<pad name="ICSP6" x="12.7" y="3.81" drill="0.8" rot="R90"/>
<pad name="A4" x="2.54" y="20.32" drill="1" shape="long" rot="R180"/>
<pad name="A5" x="2.54" y="17.78" drill="1" shape="long" rot="R180"/>
<pad name="A6" x="2.54" y="15.24" drill="1" shape="long" rot="R180"/>
<pad name="A7" x="2.54" y="12.7" drill="1" shape="long" rot="R180"/>
<pad name="ICSP1" x="7.62" y="1.27" drill="0.8" rot="R90"/>
<pad name="ICSP3" x="10.16" y="1.27" drill="0.8" rot="R90"/>
<pad name="ICSP5" x="12.7" y="1.27" drill="0.8" rot="R90"/>
<wire x1="0" y1="0" x2="20.32" y2="0" width="0.127" layer="21"/>
<wire x1="20.32" y1="0" x2="20.32" y2="43.18" width="0.127" layer="21"/>
<wire x1="20.32" y1="43.18" x2="0" y2="43.18" width="0.127" layer="21"/>
<wire x1="0" y1="43.18" x2="0" y2="0" width="0.127" layer="21"/>
<wire x1="7.62" y1="38.1" x2="12.7" y2="38.1" width="0.127" layer="21"/>
<wire x1="12.7" y1="38.1" x2="12.7" y2="45.72" width="0.127" layer="21"/>
<wire x1="12.7" y1="45.72" x2="7.62" y2="45.72" width="0.127" layer="21"/>
<wire x1="7.62" y1="45.72" x2="7.62" y2="38.1" width="0.127" layer="21"/>
</package>
</packages>
<symbols>
<symbol name="NANO">
<pin name="3.3V" x="-22.86" y="12.7" visible="pin" length="middle"/>
<pin name="AREF" x="-22.86" y="10.16" visible="pin" length="middle"/>
<pin name="ICSP1" x="-10.16" y="-27.94" visible="off" length="point" rot="R270"/>
<pin name="ICSP2" x="-10.16" y="-25.4" visible="off" length="point" rot="R270"/>
<pin name="ICSP3" x="-7.62" y="-27.94" visible="off" length="point" rot="R270"/>
<pin name="ICSP4" x="-7.62" y="-25.4" visible="off" length="point" rot="R270"/>
<pin name="TX0" x="10.16" y="-20.32" visible="pin" length="middle" rot="R180"/>
<pin name="RX1" x="10.16" y="-17.78" visible="pin" length="middle" rot="R180"/>
<pin name="RST1" x="10.16" y="-15.24" visible="pin" length="middle" rot="R180"/>
<pin name="GND2" x="10.16" y="-12.7" visible="pin" length="middle" rot="R180"/>
<pin name="D2" x="10.16" y="-10.16" visible="pin" length="middle" rot="R180"/>
<pin name="D3" x="10.16" y="-7.62" visible="pin" length="middle" rot="R180"/>
<pin name="D4" x="10.16" y="-5.08" visible="pin" length="middle" rot="R180"/>
<pin name="D5" x="10.16" y="-2.54" visible="pin" length="middle" rot="R180"/>
<pin name="D6" x="10.16" y="0" visible="pin" length="middle" rot="R180"/>
<pin name="D7" x="10.16" y="2.54" visible="pin" length="middle" rot="R180"/>
<pin name="D8" x="10.16" y="5.08" visible="pin" length="middle" rot="R180"/>
<pin name="D9" x="10.16" y="7.62" visible="pin" length="middle" rot="R180"/>
<pin name="RAW" x="-22.86" y="-20.32" visible="pin" length="middle"/>
<pin name="GND" x="-22.86" y="-17.78" visible="pin" length="middle"/>
<pin name="RST" x="-22.86" y="-15.24" visible="pin" length="middle"/>
<pin name="5.5V" x="-22.86" y="-12.7" visible="pin" length="middle"/>
<pin name="A3" x="-22.86" y="0" visible="pin" length="middle"/>
<pin name="A2" x="-22.86" y="2.54" visible="pin" length="middle"/>
<pin name="A1" x="-22.86" y="5.08" visible="pin" length="middle"/>
<pin name="A0" x="-22.86" y="7.62" visible="pin" length="middle"/>
<pin name="D13" x="-22.86" y="15.24" visible="pin" length="middle"/>
<pin name="D12" x="10.16" y="15.24" visible="pin" length="middle" rot="R180"/>
<pin name="D11" x="10.16" y="12.7" visible="pin" length="middle" rot="R180"/>
<pin name="D10" x="10.16" y="10.16" visible="pin" length="middle" rot="R180"/>
<pin name="A7" x="-22.86" y="-10.16" visible="pin" length="middle"/>
<pin name="A6" x="-22.86" y="-7.62" visible="pin" length="middle"/>
<pin name="A5" x="-22.86" y="-5.08" visible="pin" length="middle"/>
<pin name="A4" x="-22.86" y="-2.54" visible="pin" length="middle"/>
<pin name="ICSP5" x="-5.08" y="-27.94" visible="off" length="point" rot="R270"/>
<pin name="ICSP6" x="-5.08" y="-25.4" visible="off" length="point" rot="R270"/>
<wire x1="-17.78" y1="17.78" x2="-17.78" y2="-30.48" width="0.254" layer="94"/>
<wire x1="-17.78" y1="-30.48" x2="5.08" y2="-30.48" width="0.254" layer="94"/>
<wire x1="5.08" y1="-30.48" x2="5.08" y2="17.78" width="0.254" layer="94"/>
<wire x1="5.08" y1="17.78" x2="-17.78" y2="17.78" width="0.254" layer="94"/>
<text x="-12.7" y="20.32" size="1.778" layer="95">Arduino Nano</text>
</symbol>
</symbols>
<devicesets>
<deviceset name="NANO">
<description>Arduino Nano</description>
<gates>
<gate name="G$1" symbol="NANO" x="7.62" y="2.54"/>
</gates>
<devices>
<device name="" package="NANO">
<connects>
<connect gate="G$1" pin="3.3V" pad="3.3V"/>
<connect gate="G$1" pin="5.5V" pad="5V"/>
<connect gate="G$1" pin="A0" pad="A0"/>
<connect gate="G$1" pin="A1" pad="A1"/>
<connect gate="G$1" pin="A2" pad="A2"/>
<connect gate="G$1" pin="A3" pad="A3"/>
<connect gate="G$1" pin="A4" pad="A4"/>
<connect gate="G$1" pin="A5" pad="A5"/>
<connect gate="G$1" pin="A6" pad="A6"/>
<connect gate="G$1" pin="A7" pad="A7"/>
<connect gate="G$1" pin="AREF" pad="AREF"/>
<connect gate="G$1" pin="D10" pad="D10"/>
<connect gate="G$1" pin="D11" pad="D11"/>
<connect gate="G$1" pin="D12" pad="D12"/>
<connect gate="G$1" pin="D13" pad="D13"/>
<connect gate="G$1" pin="D2" pad="D2"/>
<connect gate="G$1" pin="D3" pad="D3"/>
<connect gate="G$1" pin="D4" pad="D4"/>
<connect gate="G$1" pin="D5" pad="D5"/>
<connect gate="G$1" pin="D6" pad="D6"/>
<connect gate="G$1" pin="D7" pad="D7"/>
<connect gate="G$1" pin="D8" pad="D8"/>
<connect gate="G$1" pin="D9" pad="D9"/>
<connect gate="G$1" pin="GND" pad="GND"/>
<connect gate="G$1" pin="GND2" pad="GND1"/>
<connect gate="G$1" pin="ICSP1" pad="ICSP1"/>
<connect gate="G$1" pin="ICSP2" pad="ICSP2"/>
<connect gate="G$1" pin="ICSP3" pad="ICSP3"/>
<connect gate="G$1" pin="ICSP4" pad="ICSP4"/>
<connect gate="G$1" pin="ICSP5" pad="ICSP5"/>
<connect gate="G$1" pin="ICSP6" pad="ICSP6"/>
<connect gate="G$1" pin="RAW" pad="RAW"/>
<connect gate="G$1" pin="RST" pad="RST"/>
<connect gate="G$1" pin="RST1" pad="RST1"/>
<connect gate="G$1" pin="RX1" pad="RX1"/>
<connect gate="G$1" pin="TX0" pad="TX0"/>
</connects>
<technologies>
<technology name=""/>
</technologies>
</device>
</devices>
</deviceset>
</devicesets>
</library>
<library name="SparkFun-Connectors" urn="urn:adsk.eagle:library:513">
<description>&lt;h3&gt;SparkFun Connectors&lt;/h3&gt;
This library contains electrically-functional connectors. 
&lt;br&gt;
&lt;br&gt;
We've spent an enormous amount of time creating and checking these footprints and parts, but it is &lt;b&gt; the end user's responsibility&lt;/b&gt; to ensure correctness and suitablity for a given componet or application. 
&lt;br&gt;
&lt;br&gt;If you enjoy using this library, please buy one of our products at &lt;a href=" www.sparkfun.com"&gt;SparkFun.com&lt;/a&gt;.
&lt;br&gt;
&lt;br&gt;
&lt;b&gt;Licensing:&lt;/b&gt; Creative Commons ShareAlike 4.0 International - https://creativecommons.org/licenses/by-sa/4.0/ 
&lt;br&gt;
&lt;br&gt;
You are welcome to use this library for commercial purposes. For attribution, we ask that when you begin to sell your device using our footprint, you email us with a link to the product being sold. We want bragging rights that we helped (in a very small part) to create your 8th world wonder. We would like the opportunity to feature your device on our homepage.</description>
<packages>
<package name="POWER_JACK_SMD" urn="urn:adsk.eagle:footprint:37870/1" library_version="1">
<description>&lt;h3&gt;DC Barrel Power Jack/Connector -SMD&lt;/h3&gt;
5.5mm jack, 2.1mm center pole diameter. 
&lt;p&gt;Specifications:
&lt;ul&gt;&lt;li&gt;Pin count:4&lt;/li&gt;
&lt;/ul&gt;&lt;/p&gt;
&lt;p&gt;&lt;a href=”http://cdn.sparkfun.com/datasheets/Prototyping/ADC-H-028-1.pdf”&gt;Datasheet referenced for footprint&lt;/a&gt;&lt;/p&gt;
&lt;p&gt;Example device(s):
&lt;ul&gt;&lt;li&gt;POWER_JACK&lt;/li&gt;
&lt;/ul&gt;&lt;/p&gt;</description>
<wire x1="-5" y1="4.5" x2="-5" y2="-4.5" width="0.2032" layer="51"/>
<wire x1="-5" y1="4.5" x2="-3.5" y2="4.5" width="0.2032" layer="51"/>
<wire x1="9.8" y1="4.5" x2="9.8" y2="-4.5" width="0.2032" layer="21"/>
<wire x1="-3.5" y1="-4.5" x2="-5" y2="-4.5" width="0.2032" layer="51"/>
<wire x1="-3.5" y1="4.5" x2="-3.5" y2="2.5" width="0.2032" layer="21"/>
<wire x1="-3.5" y1="2.5" x2="-3.5" y2="-2.5" width="0.2032" layer="21"/>
<wire x1="-3.5" y1="-2.5" x2="-3.5" y2="-4.5" width="0.2032" layer="21"/>
<wire x1="-3.5" y1="2.5" x2="0" y2="2.5" width="0.2032" layer="21"/>
<wire x1="0" y1="2.5" x2="2.286" y2="0" width="0.2032" layer="21" curve="-90"/>
<wire x1="2.286" y1="0" x2="0" y2="-2.5" width="0.2032" layer="21" curve="-90"/>
<wire x1="0" y1="-2.5" x2="-3.5" y2="-2.5" width="0.2032" layer="21"/>
<wire x1="-3.5" y1="4.5" x2="-2" y2="4.5" width="0.2032" layer="21"/>
<wire x1="2" y1="4.5" x2="4.1" y2="4.5" width="0.2032" layer="21"/>
<wire x1="8.2" y1="4.5" x2="9.8" y2="4.5" width="0.2032" layer="21"/>
<wire x1="9.8" y1="-4.5" x2="8.1" y2="-4.5" width="0.2032" layer="21"/>
<wire x1="4.1" y1="-4.5" x2="2" y2="-4.5" width="0.2032" layer="21"/>
<wire x1="-2" y1="-4.5" x2="-3.5" y2="-4.5" width="0.2032" layer="21"/>
<smd name="VIN0" x="0" y="5.7" dx="2.8" dy="2.4" layer="1"/>
<smd name="GND" x="0" y="-5.7" dx="2.8" dy="2.4" layer="1"/>
<smd name="VIN1" x="6.1" y="5.7" dx="2.8" dy="2.4" layer="1"/>
<smd name="P$4" x="6.1" y="-5.7" dx="2.8" dy="2.4" layer="1"/>
<hole x="0" y="0" drill="2.032"/>
<hole x="4.572" y="0" drill="2.032"/>
<text x="4.1402" y="2.794" size="0.6096" layer="25" font="vector" ratio="20">&gt;NAME</text>
<text x="3.81" y="-3.302" size="0.6096" layer="27" font="vector" ratio="20">&gt;VALUE</text>
</package>
<package name="POWER_JACK_SLOT" urn="urn:adsk.eagle:footprint:37871/1" library_version="1">
<description>&lt;h3&gt;DC Barrel Power Jack/Connector PTH Slot Pads&lt;/h3&gt;
Extended soldering pads. 
5.5mm jack, 2.1mm center pole diameter
&lt;p&gt;Specifications:
&lt;ul&gt;&lt;li&gt;Pin count: 3&lt;/li&gt;
&lt;/ul&gt;&lt;/p&gt;
&lt;p&gt;&lt;a href=”https://www.sparkfun.com/datasheets/Prototyping/Barrel-Connector-PJ-202A.pdf”&gt;Datasheet referenced for footprint&lt;/a&gt;&lt;/p&gt;
&lt;p&gt;Example device(s):
&lt;ul&gt;&lt;li&gt;POWER_JACK&lt;/li&gt;
&lt;/ul&gt;&lt;/p&gt;</description>
<wire x1="9.33" y1="13.7" x2="4.83" y2="13.7" width="0.2032" layer="21"/>
<wire x1="4.83" y1="13.7" x2="0.83" y2="13.7" width="0.2032" layer="51"/>
<wire x1="0.83" y1="13.7" x2="0.83" y2="12.7" width="0.2032" layer="51"/>
<wire x1="0.83" y1="12.7" x2="0.83" y2="8.4" width="0.2032" layer="21"/>
<wire x1="0.83" y1="8.4" x2="0.83" y2="6.55" width="0.2032" layer="51"/>
<wire x1="0.98" y1="13.8" x2="4.18" y2="13.8" width="0" layer="46"/>
<wire x1="0.98" y1="13.8" x2="1.48" y2="14.3" width="0" layer="46" curve="-90"/>
<wire x1="1.48" y1="14.3" x2="3.68" y2="14.3" width="0" layer="46"/>
<wire x1="3.68" y1="14.3" x2="4.18" y2="13.8" width="0" layer="46" curve="-90"/>
<wire x1="4.18" y1="13.8" x2="3.68" y2="13.3" width="0" layer="46" curve="-90"/>
<wire x1="3.68" y1="13.3" x2="1.48" y2="13.3" width="0" layer="46"/>
<wire x1="1.48" y1="13.3" x2="0.98" y2="13.8" width="0" layer="46" curve="-90"/>
<wire x1="0.98" y1="7.5" x2="1.48" y2="8" width="0" layer="46" curve="-90"/>
<wire x1="1.48" y1="8" x2="3.68" y2="8" width="0" layer="46"/>
<wire x1="3.68" y1="8" x2="4.18" y2="7.5" width="0" layer="46" curve="-90"/>
<wire x1="4.18" y1="7.5" x2="3.68" y2="7" width="0" layer="46" curve="-90"/>
<wire x1="3.68" y1="7" x2="1.48" y2="7" width="0" layer="46"/>
<wire x1="1.48" y1="7" x2="0.98" y2="7.5" width="0" layer="46" curve="-90"/>
<wire x1="7.58" y1="12.4" x2="8.08" y2="11.9" width="0" layer="46" curve="-90"/>
<wire x1="8.08" y1="11.9" x2="8.08" y2="9.7" width="0" layer="46"/>
<wire x1="8.08" y1="9.7" x2="7.58" y2="9.2" width="0" layer="46" curve="-90"/>
<wire x1="7.58" y1="9.2" x2="7.08" y2="9.7" width="0" layer="46" curve="-90"/>
<wire x1="7.08" y1="9.7" x2="7.08" y2="11.9" width="0" layer="46"/>
<wire x1="7.08" y1="11.9" x2="7.58" y2="12.4" width="0" layer="46" curve="-90"/>
<wire x1="0.83" y1="3.1" x2="0.83" y2="0.1" width="0.2032" layer="51"/>
<wire x1="9.33" y1="0.1" x2="9.33" y2="3.1" width="0.2032" layer="51"/>
<wire x1="9.33" y1="0.1" x2="0.83" y2="0.1" width="0.2032" layer="51"/>
<wire x1="0.83" y1="6.51" x2="0.83" y2="3.1" width="0.2032" layer="21"/>
<wire x1="9.33" y1="3.1" x2="9.33" y2="13.7" width="0.2032" layer="21"/>
<wire x1="0.83" y1="3.1" x2="9.33" y2="3.1" width="0.2032" layer="21"/>
<wire x1="9.33" y1="3.1" x2="9.28" y2="3.1" width="0.2032" layer="21"/>
<pad name="PWR" x="2.58" y="13.8" drill="1" diameter="2" shape="long"/>
<pad name="GND@1" x="2.58" y="7.5" drill="1" diameter="2" shape="long"/>
<pad name="GND@2" x="7.58" y="10.8" drill="1" diameter="2" shape="long" rot="R90"/>
<text x="3.5052" y="2.159" size="0.6096" layer="25" font="vector" ratio="20">&gt;NAME</text>
<text x="3.175" y="1.143" size="0.6096" layer="27" font="vector" ratio="20">&gt;VALUE</text>
</package>
<package name="POWER_JACK_PTH" urn="urn:adsk.eagle:footprint:37872/1" library_version="1">
<description>&lt;h3&gt;DC Barrel Power Jack/Connector PTH&lt;/h3&gt;
5.5mm jack, 2.1mm center pole diameter
&lt;p&gt;Specifications:
&lt;ul&gt;&lt;li&gt;Pin count: 3&lt;/li&gt;
&lt;/ul&gt;&lt;/p&gt;
&lt;p&gt;&lt;a href=”https://www.sparkfun.com/datasheets/Prototyping/Barrel-Connector-PJ-202A.pdf”&gt;Datasheet referenced for footprint&lt;/a&gt;&lt;/p&gt;
&lt;p&gt;Example device(s):
&lt;ul&gt;&lt;li&gt;POWER_JACK&lt;/li&gt;
&lt;/ul&gt;&lt;/p&gt;</description>
<wire x1="4.5" y1="13.7" x2="2.4" y2="13.7" width="0.2032" layer="21"/>
<wire x1="-4.5" y1="3" x2="-4.5" y2="0.1" width="0.2032" layer="51"/>
<wire x1="4.5" y1="0.1" x2="4.5" y2="3" width="0.2032" layer="51"/>
<wire x1="4.5" y1="0.1" x2="-4.5" y2="0.1" width="0.2032" layer="51"/>
<wire x1="4.5" y1="3" x2="4.5" y2="8.3" width="0.2032" layer="21"/>
<wire x1="4.5" y1="13.7" x2="4.5" y2="13" width="0.2032" layer="21"/>
<wire x1="-4.5" y1="3" x2="-4.5" y2="13.7" width="0.2032" layer="21"/>
<wire x1="-4.5" y1="13.7" x2="-2.4" y2="13.7" width="0.2032" layer="21"/>
<wire x1="-4.5" y1="3" x2="4.5" y2="3" width="0.2032" layer="21"/>
<pad name="PWR" x="0" y="13.7" drill="2.9972" diameter="4.318"/>
<pad name="GND" x="0" y="7.7" drill="2.9972" diameter="4.318"/>
<pad name="GNDBREAK" x="4.7" y="10.7" drill="2.9972" diameter="4.318" rot="R90"/>
<text x="-1.3716" y="1.8288" size="0.6096" layer="25" font="vector" ratio="20">&gt;NAME</text>
<text x="-1.7526" y="0.8128" size="0.6096" layer="27" font="vector" ratio="20">&gt;VALUE</text>
</package>
<package name="POWER_JACK_COMBO" urn="urn:adsk.eagle:footprint:37873/1" library_version="1">
<wire x1="-5" y1="4.5" x2="-5" y2="-4.5" width="0.2032" layer="51"/>
<wire x1="-5" y1="4.5" x2="-3.5" y2="4.5" width="0.2032" layer="51"/>
<wire x1="9.8" y1="4.5" x2="9.8" y2="-4.5" width="0.2032" layer="51"/>
<wire x1="-3.5" y1="-4.5" x2="-5" y2="-4.5" width="0.2032" layer="51"/>
<wire x1="-3.5" y1="4.5" x2="-3.5" y2="2.5" width="0.2032" layer="51"/>
<wire x1="-3.5" y1="2.5" x2="-3.5" y2="-2.5" width="0.2032" layer="51"/>
<wire x1="-3.5" y1="-2.5" x2="-3.5" y2="-4.5" width="0.2032" layer="51"/>
<wire x1="-3.5" y1="2.5" x2="0" y2="2.5" width="0.2032" layer="51"/>
<wire x1="0" y1="2.5" x2="2.286" y2="0" width="0.2032" layer="51" curve="-90"/>
<wire x1="2.286" y1="0" x2="0" y2="-2.5" width="0.2032" layer="51" curve="-90"/>
<wire x1="0" y1="-2.5" x2="-3.5" y2="-2.5" width="0.2032" layer="51"/>
<wire x1="-3.5" y1="4.5" x2="-2" y2="4.5" width="0.2032" layer="51"/>
<wire x1="2" y1="4.5" x2="4.1" y2="4.5" width="0.2032" layer="51"/>
<wire x1="8.2" y1="4.5" x2="9.8" y2="4.5" width="0.2032" layer="51"/>
<wire x1="9.8" y1="-4.5" x2="8.1" y2="-4.5" width="0.2032" layer="51"/>
<wire x1="4.1" y1="-4.5" x2="2" y2="-4.5" width="0.2032" layer="51"/>
<wire x1="-2" y1="-4.5" x2="-3.5" y2="-4.5" width="0.2032" layer="51"/>
<wire x1="8.62" y1="-1.96" x2="8.62" y2="0.14" width="0.2032" layer="51"/>
<wire x1="-2.08" y1="7.04" x2="-4.98" y2="7.04" width="0.2032" layer="51"/>
<wire x1="-4.98" y1="-1.96" x2="-2.08" y2="-1.96" width="0.2032" layer="51"/>
<wire x1="-4.98" y1="-1.96" x2="-4.98" y2="7.04" width="0.2032" layer="51"/>
<wire x1="-2.08" y1="-1.96" x2="3.22" y2="-1.96" width="0.2032" layer="51"/>
<wire x1="8.62" y1="-1.96" x2="7.92" y2="-1.96" width="0.2032" layer="51"/>
<wire x1="-2.08" y1="7.04" x2="8.62" y2="7.04" width="0.2032" layer="51"/>
<wire x1="8.62" y1="7.04" x2="8.62" y2="4.94" width="0.2032" layer="51"/>
<wire x1="-2.08" y1="7.04" x2="-2.08" y2="-1.96" width="0.2032" layer="51"/>
<wire x1="0" y1="5.715" x2="6.35" y2="5.715" width="1.27" layer="1"/>
<wire x1="6.35" y1="5.715" x2="6.35" y2="5.08" width="1.27" layer="1"/>
<wire x1="6.35" y1="5.08" x2="8.89" y2="2.54" width="1.27" layer="1"/>
<wire x1="2.54" y1="2.54" x2="2.54" y2="-1.905" width="1.27" layer="1"/>
<wire x1="2.54" y1="-1.905" x2="2.54" y2="-5.715" width="1.27" layer="1"/>
<wire x1="2.54" y1="-5.715" x2="0" y2="-5.715" width="1.27" layer="1"/>
<wire x1="6.35" y1="-5.715" x2="2.54" y2="-5.715" width="1.27" layer="1"/>
<wire x1="5.715" y1="-1.905" x2="2.54" y2="-1.905" width="1.27" layer="1"/>
<pad name="POWER" x="8.62" y="2.54" drill="2.9972" rot="R270"/>
<pad name="GND@1" x="2.62" y="2.54" drill="2.9972" rot="R270"/>
<pad name="GND" x="5.62" y="-2.16" drill="2.9972"/>
<smd name="POWER@1" x="0" y="5.7" dx="2.8" dy="2.4" layer="1"/>
<smd name="GND@3" x="0" y="-5.7" dx="2.8" dy="2.4" layer="1"/>
<smd name="POWER@2" x="6.1" y="5.7" dx="2.8" dy="2.4" layer="1"/>
<smd name="GND@4" x="6.1" y="-5.7" dx="2.8" dy="2.4" layer="1"/>
<hole x="0" y="0" drill="1.6"/>
<hole x="5.08" y="0" drill="1.6"/>
<text x="1.27" y="7.747" size="0.6096" layer="25" font="vector" ratio="20">&gt;NAME</text>
<text x="1.27" y="-8.382" size="0.6096" layer="27" font="vector" ratio="20">&gt;VALUE</text>
</package>
<package name="POWER_JACK_PTH_LOCK" urn="urn:adsk.eagle:footprint:37874/1" library_version="1">
<description>&lt;h3&gt;DC Barrel Power Jack/Connector PTH Locking Footprint&lt;/h3&gt;
5.5mm jack, 2.1mm center pole diameter.
&lt;br&gt; Holes are offset from center 0.005" to hold pins in place during soldering. 
&lt;p&gt;Specifications:
&lt;ul&gt;&lt;li&gt;Pin count: 3&lt;/li&gt;
&lt;/ul&gt;&lt;/p&gt;
&lt;p&gt;&lt;a href=”https://www.sparkfun.com/datasheets/Prototyping/Barrel-Connector-PJ-202A.pdf”&gt;Datasheet referenced for footprint&lt;/a&gt;&lt;/p&gt;
&lt;p&gt;Example device(s):
&lt;ul&gt;&lt;li&gt;POWER_JACK&lt;/li&gt;
&lt;/ul&gt;&lt;/p&gt;</description>
<wire x1="4.3476" y1="14.2588" x2="2.4" y2="14.2588" width="0.2032" layer="21"/>
<wire x1="-4.3476" y1="3.2794" x2="-4.3476" y2="0.1" width="0.2032" layer="51"/>
<wire x1="4.3476" y1="0.1" x2="4.3476" y2="3.2794" width="0.2032" layer="51"/>
<wire x1="4.3476" y1="0.1" x2="-4.3476" y2="0.1" width="0.2032" layer="51"/>
<wire x1="4.3476" y1="3.254" x2="4.3476" y2="8.3" width="0.2032" layer="21"/>
<wire x1="4.3476" y1="14.2588" x2="4.3476" y2="13" width="0.2032" layer="21"/>
<wire x1="-4.3476" y1="3.254" x2="-4.3476" y2="14.2588" width="0.2032" layer="21"/>
<wire x1="-4.3476" y1="14.2588" x2="-2.4" y2="14.2588" width="0.2032" layer="21"/>
<wire x1="-4.3476" y1="3.254" x2="4.3476" y2="3.254" width="0.2032" layer="21"/>
<pad name="PWR" x="0" y="13.8778" drill="3.2" diameter="4.1148"/>
<pad name="GND" x="0.0254" y="6.557" drill="2.9972" diameter="4.1148"/>
<pad name="GNDBREAK" x="3.7616" y="10.7" drill="2.9972" diameter="4.1148" rot="R90"/>
<rectangle x1="-0.2159" y1="12.1793" x2="0.2413" y2="15.1003" layer="51" rot="R90"/>
<rectangle x1="-0.1397" y1="6.3119" x2="0.1397" y2="8.7503" layer="51" rot="R90"/>
<rectangle x1="4.4704" y1="9.4742" x2="4.7498" y2="11.9126" layer="51" rot="R180"/>
<text x="-1.5748" y="2.159" size="0.6096" layer="25" font="vector" ratio="20">&gt;NAME</text>
<text x="-1.905" y="1.143" size="0.6096" layer="27" font="vector" ratio="20">&gt;VALUE</text>
</package>
<package name="POWER_JACK_SMD_OVERPASTE_TOE" urn="urn:adsk.eagle:footprint:37875/1" library_version="1">
<description>&lt;h3&gt;DC Barrel Power Jack/Connector -SMD Overpaste&lt;/h3&gt;
Over paste toe on each SMD pad to ease use of AOI. 
5.5mm jack, 2.1mm center pole diameter. 
&lt;p&gt;Specifications:
&lt;ul&gt;&lt;li&gt;Pin count:4&lt;/li&gt;
&lt;/ul&gt;&lt;/p&gt;
&lt;p&gt;&lt;a href=”http://cdn.sparkfun.com/datasheets/Prototyping/ADC-H-028-1.pdf”&gt;Datasheet referenced for footprint&lt;/a&gt;&lt;/p&gt;
&lt;p&gt;Example device(s):
&lt;ul&gt;&lt;li&gt;POWER_JACK&lt;/li&gt;
&lt;/ul&gt;&lt;/p&gt;</description>
<wire x1="-5" y1="4.5" x2="-5" y2="-4.5" width="0.2032" layer="51"/>
<wire x1="-5" y1="4.5" x2="-3.5" y2="4.5" width="0.2032" layer="51"/>
<wire x1="9.8" y1="4.5" x2="9.8" y2="-4.5" width="0.2032" layer="21"/>
<wire x1="-3.5" y1="-4.5" x2="-5" y2="-4.5" width="0.2032" layer="51"/>
<wire x1="-3.5" y1="4.5" x2="-3.5" y2="2.5" width="0.2032" layer="21"/>
<wire x1="-3.5" y1="2.5" x2="-3.5" y2="-2.5" width="0.2032" layer="21"/>
<wire x1="-3.5" y1="-2.5" x2="-3.5" y2="-4.5" width="0.2032" layer="21"/>
<wire x1="-3.5" y1="2.5" x2="0" y2="2.5" width="0.2032" layer="21"/>
<wire x1="0" y1="2.5" x2="2.286" y2="0" width="0.2032" layer="21" curve="-90"/>
<wire x1="2.286" y1="0" x2="0" y2="-2.5" width="0.2032" layer="21" curve="-90"/>
<wire x1="0" y1="-2.5" x2="-3.5" y2="-2.5" width="0.2032" layer="21"/>
<wire x1="-3.5" y1="4.5" x2="-2" y2="4.5" width="0.2032" layer="21"/>
<wire x1="2" y1="4.5" x2="4.1" y2="4.5" width="0.2032" layer="21"/>
<wire x1="8.2" y1="4.5" x2="9.8" y2="4.5" width="0.2032" layer="21"/>
<wire x1="9.8" y1="-4.5" x2="8.1" y2="-4.5" width="0.2032" layer="21"/>
<wire x1="4.1" y1="-4.5" x2="2" y2="-4.5" width="0.2032" layer="21"/>
<wire x1="-2" y1="-4.5" x2="-3.5" y2="-4.5" width="0.2032" layer="21"/>
<wire x1="1.3462" y1="7.0358" x2="1.3462" y2="8.3312" width="0.127" layer="51" style="shortdash"/>
<wire x1="1.3462" y1="8.3312" x2="-1.3462" y2="8.3312" width="0.127" layer="51"/>
<wire x1="-1.3462" y1="8.3312" x2="-1.3462" y2="6.9596" width="0.127" layer="51" style="shortdash"/>
<wire x1="7.4422" y1="7.0104" x2="7.4422" y2="8.3058" width="0.127" layer="51" style="shortdash"/>
<wire x1="7.4422" y1="8.3058" x2="4.7498" y2="8.3058" width="0.127" layer="51"/>
<wire x1="4.7498" y1="8.3058" x2="4.7498" y2="6.9342" width="0.127" layer="51" style="shortdash"/>
<wire x1="-1.3716" y1="-7.0358" x2="-1.3716" y2="-8.3312" width="0.127" layer="51" style="shortdash"/>
<wire x1="-1.3716" y1="-8.3312" x2="1.3208" y2="-8.3312" width="0.127" layer="51"/>
<wire x1="1.3208" y1="-8.3312" x2="1.3208" y2="-6.9596" width="0.127" layer="51" style="shortdash"/>
<wire x1="4.7498" y1="-7.0612" x2="4.7498" y2="-8.3566" width="0.127" layer="51" style="shortdash"/>
<wire x1="4.7498" y1="-8.3566" x2="7.4422" y2="-8.3566" width="0.127" layer="51"/>
<wire x1="7.4422" y1="-8.3566" x2="7.4422" y2="-6.985" width="0.127" layer="51" style="shortdash"/>
<smd name="VIN0" x="0" y="5.7" dx="2.8" dy="2.4" layer="1"/>
<smd name="GND" x="0" y="-5.7" dx="2.8" dy="2.4" layer="1"/>
<smd name="VIN1" x="6.1" y="5.7" dx="2.8" dy="2.4" layer="1"/>
<smd name="P$4" x="6.1" y="-5.7" dx="2.8" dy="2.4" layer="1"/>
<hole x="0" y="0" drill="2.032"/>
<hole x="4.572" y="0" drill="2.032"/>
<rectangle x1="-1.399540625" y1="-8.382" x2="1.399540625" y2="-6.8961" layer="31"/>
<rectangle x1="4.701540625" y1="-8.384540625" x2="7.500621875" y2="-6.898640625" layer="31"/>
<rectangle x1="4.7015375" y1="6.8961" x2="7.50061875" y2="8.382" layer="31" rot="R180"/>
<rectangle x1="-1.39954375" y1="6.8961" x2="1.3995375" y2="8.382" layer="31" rot="R180"/>
<rectangle x1="5.7531" y1="-6.6675" x2="6.8707" y2="-6.6421" layer="200" rot="R180"/>
<rectangle x1="5.6261" y1="-6.6421" x2="6.9215" y2="-6.6167" layer="200" rot="R180"/>
<rectangle x1="5.5753" y1="-6.6167" x2="6.9723" y2="-6.5913" layer="200" rot="R180"/>
<rectangle x1="5.5499" y1="-6.5913" x2="6.9723" y2="-6.5659" layer="200" rot="R180"/>
<rectangle x1="5.5245" y1="-6.5659" x2="6.9977" y2="-6.5405" layer="200" rot="R180"/>
<rectangle x1="5.4991" y1="-6.5405" x2="7.0231" y2="-6.5151" layer="200" rot="R180"/>
<rectangle x1="5.4991" y1="-6.5151" x2="7.0231" y2="-6.4897" layer="200" rot="R180"/>
<rectangle x1="5.4737" y1="-6.4897" x2="7.0231" y2="-6.4643" layer="200" rot="R180"/>
<rectangle x1="5.4737" y1="-6.4643" x2="7.0231" y2="-6.4389" layer="200" rot="R180"/>
<rectangle x1="-0.7493" y1="-6.4643" x2="0.4445" y2="-6.4389" layer="200" rot="R180"/>
<rectangle x1="5.4737" y1="-6.4389" x2="7.0231" y2="-6.4135" layer="200" rot="R180"/>
<rectangle x1="-0.8001" y1="-6.4389" x2="0.5207" y2="-6.4135" layer="200" rot="R180"/>
<rectangle x1="5.4483" y1="-6.4135" x2="7.0231" y2="-6.3881" layer="200" rot="R180"/>
<rectangle x1="-0.8255" y1="-6.4135" x2="0.5461" y2="-6.3881" layer="200" rot="R180"/>
<rectangle x1="5.4483" y1="-6.3881" x2="7.0231" y2="-6.3627" layer="200" rot="R180"/>
<rectangle x1="-0.8509" y1="-6.3881" x2="0.5715" y2="-6.3627" layer="200" rot="R180"/>
<rectangle x1="5.4483" y1="-6.3627" x2="7.0231" y2="-6.3373" layer="200" rot="R180"/>
<rectangle x1="-0.8509" y1="-6.3627" x2="0.5969" y2="-6.3373" layer="200" rot="R180"/>
<rectangle x1="5.4483" y1="-6.3373" x2="7.0231" y2="-6.3119" layer="200" rot="R180"/>
<rectangle x1="-0.8763" y1="-6.3373" x2="0.6223" y2="-6.3119" layer="200" rot="R180"/>
<rectangle x1="5.4483" y1="-6.3119" x2="7.0231" y2="-6.2865" layer="200" rot="R180"/>
<rectangle x1="-0.8763" y1="-6.3119" x2="0.6223" y2="-6.2865" layer="200" rot="R180"/>
<rectangle x1="5.4483" y1="-6.2865" x2="7.0231" y2="-6.2611" layer="200" rot="R180"/>
<rectangle x1="-0.8763" y1="-6.2865" x2="0.6223" y2="-6.2611" layer="200" rot="R180"/>
<rectangle x1="5.4483" y1="-6.2611" x2="7.0231" y2="-6.2357" layer="200" rot="R180"/>
<rectangle x1="-0.9017" y1="-6.2611" x2="0.6477" y2="-6.2357" layer="200" rot="R180"/>
<rectangle x1="5.4483" y1="-6.2357" x2="7.0231" y2="-6.2103" layer="200" rot="R180"/>
<rectangle x1="-0.9017" y1="-6.2357" x2="0.6477" y2="-6.2103" layer="200" rot="R180"/>
<rectangle x1="5.4483" y1="-6.2103" x2="7.0231" y2="-6.1849" layer="200" rot="R180"/>
<rectangle x1="-0.9017" y1="-6.2103" x2="0.6477" y2="-6.1849" layer="200" rot="R180"/>
<rectangle x1="5.4483" y1="-6.1849" x2="7.0231" y2="-6.1595" layer="200" rot="R180"/>
<rectangle x1="-0.9017" y1="-6.1849" x2="0.6477" y2="-6.1595" layer="200" rot="R180"/>
<rectangle x1="5.4483" y1="-6.1595" x2="7.0231" y2="-6.1341" layer="200" rot="R180"/>
<rectangle x1="-0.9017" y1="-6.1595" x2="0.6477" y2="-6.1341" layer="200" rot="R180"/>
<rectangle x1="5.4483" y1="-6.1341" x2="7.0231" y2="-6.1087" layer="200" rot="R180"/>
<rectangle x1="-0.9017" y1="-6.1341" x2="0.6477" y2="-6.1087" layer="200" rot="R180"/>
<rectangle x1="5.4483" y1="-6.1087" x2="7.0231" y2="-6.0833" layer="200" rot="R180"/>
<rectangle x1="-0.9017" y1="-6.1087" x2="0.6477" y2="-6.0833" layer="200" rot="R180"/>
<rectangle x1="5.4483" y1="-6.0833" x2="7.0231" y2="-6.0579" layer="200" rot="R180"/>
<rectangle x1="-0.9017" y1="-6.0833" x2="0.6477" y2="-6.0579" layer="200" rot="R180"/>
<rectangle x1="5.4483" y1="-6.0579" x2="7.0231" y2="-6.0325" layer="200" rot="R180"/>
<rectangle x1="-0.9017" y1="-6.0579" x2="0.6477" y2="-6.0325" layer="200" rot="R180"/>
<rectangle x1="5.4483" y1="-6.0325" x2="7.0231" y2="-6.0071" layer="200" rot="R180"/>
<rectangle x1="-0.9017" y1="-6.0325" x2="0.6477" y2="-6.0071" layer="200" rot="R180"/>
<rectangle x1="5.4483" y1="-6.0071" x2="7.0231" y2="-5.9817" layer="200" rot="R180"/>
<rectangle x1="-0.9017" y1="-6.0071" x2="0.6477" y2="-5.9817" layer="200" rot="R180"/>
<rectangle x1="5.4483" y1="-5.9817" x2="7.0231" y2="-5.9563" layer="200" rot="R180"/>
<rectangle x1="-0.9017" y1="-5.9817" x2="0.6731" y2="-5.9563" layer="200" rot="R180"/>
<rectangle x1="5.4483" y1="-5.9563" x2="7.0231" y2="-5.9309" layer="200" rot="R180"/>
<rectangle x1="-0.9017" y1="-5.9563" x2="0.6731" y2="-5.9309" layer="200" rot="R180"/>
<rectangle x1="5.4483" y1="-5.9309" x2="7.0231" y2="-5.9055" layer="200" rot="R180"/>
<rectangle x1="-0.9017" y1="-5.9309" x2="0.6731" y2="-5.9055" layer="200" rot="R180"/>
<rectangle x1="5.4483" y1="-5.9055" x2="7.0231" y2="-5.8801" layer="200" rot="R180"/>
<rectangle x1="-0.9017" y1="-5.9055" x2="0.6731" y2="-5.8801" layer="200" rot="R180"/>
<rectangle x1="5.4483" y1="-5.8801" x2="7.0231" y2="-5.8547" layer="200" rot="R180"/>
<rectangle x1="-0.9017" y1="-5.8801" x2="0.6731" y2="-5.8547" layer="200" rot="R180"/>
<rectangle x1="5.4737" y1="-5.8547" x2="7.0231" y2="-5.8293" layer="200" rot="R180"/>
<rectangle x1="-0.9017" y1="-5.8547" x2="0.6731" y2="-5.8293" layer="200" rot="R180"/>
<rectangle x1="5.4737" y1="-5.8293" x2="7.0231" y2="-5.8039" layer="200" rot="R180"/>
<rectangle x1="-0.9017" y1="-5.8293" x2="0.6731" y2="-5.8039" layer="200" rot="R180"/>
<rectangle x1="5.4737" y1="-5.8039" x2="7.0231" y2="-5.7785" layer="200" rot="R180"/>
<rectangle x1="-0.9017" y1="-5.8039" x2="0.6731" y2="-5.7785" layer="200" rot="R180"/>
<rectangle x1="5.4737" y1="-5.7785" x2="7.0231" y2="-5.7531" layer="200" rot="R180"/>
<rectangle x1="-0.9017" y1="-5.7785" x2="0.6731" y2="-5.7531" layer="200" rot="R180"/>
<rectangle x1="5.4737" y1="-5.7531" x2="7.0231" y2="-5.7277" layer="200" rot="R180"/>
<rectangle x1="-0.8763" y1="-5.7531" x2="0.6731" y2="-5.7277" layer="200" rot="R180"/>
<rectangle x1="5.4737" y1="-5.7277" x2="7.0231" y2="-5.7023" layer="200" rot="R180"/>
<rectangle x1="-0.8763" y1="-5.7277" x2="0.6731" y2="-5.7023" layer="200" rot="R180"/>
<rectangle x1="5.4737" y1="-5.7023" x2="7.0231" y2="-5.6769" layer="200" rot="R180"/>
<rectangle x1="-0.8763" y1="-5.7023" x2="0.6731" y2="-5.6769" layer="200" rot="R180"/>
<rectangle x1="5.4737" y1="-5.6769" x2="7.0231" y2="-5.6515" layer="200" rot="R180"/>
<rectangle x1="-0.8763" y1="-5.6769" x2="0.6731" y2="-5.6515" layer="200" rot="R180"/>
<rectangle x1="5.4737" y1="-5.6515" x2="7.0231" y2="-5.6261" layer="200" rot="R180"/>
<rectangle x1="-0.8763" y1="-5.6515" x2="0.6731" y2="-5.6261" layer="200" rot="R180"/>
<rectangle x1="5.4737" y1="-5.6261" x2="7.0231" y2="-5.6007" layer="200" rot="R180"/>
<rectangle x1="-0.8763" y1="-5.6261" x2="0.6731" y2="-5.6007" layer="200" rot="R180"/>
<rectangle x1="5.4737" y1="-5.6007" x2="7.0231" y2="-5.5753" layer="200" rot="R180"/>
<rectangle x1="-0.8763" y1="-5.6007" x2="0.6731" y2="-5.5753" layer="200" rot="R180"/>
<rectangle x1="5.4737" y1="-5.5753" x2="7.0231" y2="-5.5499" layer="200" rot="R180"/>
<rectangle x1="-0.8763" y1="-5.5753" x2="0.6731" y2="-5.5499" layer="200" rot="R180"/>
<rectangle x1="5.4737" y1="-5.5499" x2="7.0231" y2="-5.5245" layer="200" rot="R180"/>
<rectangle x1="-0.8763" y1="-5.5499" x2="0.6731" y2="-5.5245" layer="200" rot="R180"/>
<rectangle x1="5.4737" y1="-5.5245" x2="7.0231" y2="-5.4991" layer="200" rot="R180"/>
<rectangle x1="-0.8763" y1="-5.5245" x2="0.6731" y2="-5.4991" layer="200" rot="R180"/>
<rectangle x1="5.4737" y1="-5.4991" x2="7.0231" y2="-5.4737" layer="200" rot="R180"/>
<rectangle x1="-0.8763" y1="-5.4991" x2="0.6731" y2="-5.4737" layer="200" rot="R180"/>
<rectangle x1="5.4737" y1="-5.4737" x2="7.0231" y2="-5.4483" layer="200" rot="R180"/>
<rectangle x1="-0.8763" y1="-5.4737" x2="0.6731" y2="-5.4483" layer="200" rot="R180"/>
<rectangle x1="5.4737" y1="-5.4483" x2="7.0231" y2="-5.4229" layer="200" rot="R180"/>
<rectangle x1="-0.8763" y1="-5.4483" x2="0.6731" y2="-5.4229" layer="200" rot="R180"/>
<rectangle x1="5.4737" y1="-5.4229" x2="7.0231" y2="-5.3975" layer="200" rot="R180"/>
<rectangle x1="-0.8763" y1="-5.4229" x2="0.6731" y2="-5.3975" layer="200" rot="R180"/>
<rectangle x1="5.4737" y1="-5.3975" x2="7.0231" y2="-5.3721" layer="200" rot="R180"/>
<rectangle x1="-0.8763" y1="-5.3975" x2="0.6731" y2="-5.3721" layer="200" rot="R180"/>
<rectangle x1="5.4737" y1="-5.3721" x2="7.0231" y2="-5.3467" layer="200" rot="R180"/>
<rectangle x1="-0.8763" y1="-5.3721" x2="0.6731" y2="-5.3467" layer="200" rot="R180"/>
<rectangle x1="5.4737" y1="-5.3467" x2="7.0231" y2="-5.3213" layer="200" rot="R180"/>
<rectangle x1="-0.8763" y1="-5.3467" x2="0.6731" y2="-5.3213" layer="200" rot="R180"/>
<rectangle x1="5.4737" y1="-5.3213" x2="7.0231" y2="-5.2959" layer="200" rot="R180"/>
<rectangle x1="-0.8763" y1="-5.3213" x2="0.6731" y2="-5.2959" layer="200" rot="R180"/>
<rectangle x1="5.4737" y1="-5.2959" x2="7.0231" y2="-5.2705" layer="200" rot="R180"/>
<rectangle x1="-0.8763" y1="-5.2959" x2="0.6731" y2="-5.2705" layer="200" rot="R180"/>
<rectangle x1="5.4737" y1="-5.2705" x2="7.0231" y2="-5.2451" layer="200" rot="R180"/>
<rectangle x1="-0.8763" y1="-5.2705" x2="0.6731" y2="-5.2451" layer="200" rot="R180"/>
<rectangle x1="5.4737" y1="-5.2451" x2="7.0231" y2="-5.2197" layer="200" rot="R180"/>
<rectangle x1="-0.8763" y1="-5.2451" x2="0.6731" y2="-5.2197" layer="200" rot="R180"/>
<rectangle x1="5.4737" y1="-5.2197" x2="7.0231" y2="-5.1943" layer="200" rot="R180"/>
<rectangle x1="-0.8509" y1="-5.2197" x2="0.6731" y2="-5.1943" layer="200" rot="R180"/>
<rectangle x1="5.4737" y1="-5.1943" x2="7.0231" y2="-5.1689" layer="200" rot="R180"/>
<rectangle x1="-0.8509" y1="-5.1943" x2="0.6731" y2="-5.1689" layer="200" rot="R180"/>
<rectangle x1="5.4737" y1="-5.1689" x2="7.0231" y2="-5.1435" layer="200" rot="R180"/>
<rectangle x1="-0.8509" y1="-5.1689" x2="0.6731" y2="-5.1435" layer="200" rot="R180"/>
<rectangle x1="5.4737" y1="-5.1435" x2="7.0231" y2="-5.1181" layer="200" rot="R180"/>
<rectangle x1="-0.8509" y1="-5.1435" x2="0.6731" y2="-5.1181" layer="200" rot="R180"/>
<rectangle x1="5.4737" y1="-5.1181" x2="7.0231" y2="-5.0927" layer="200" rot="R180"/>
<rectangle x1="-0.8509" y1="-5.1181" x2="0.6731" y2="-5.0927" layer="200" rot="R180"/>
<rectangle x1="5.4737" y1="-5.0927" x2="7.0231" y2="-5.0673" layer="200" rot="R180"/>
<rectangle x1="-0.8509" y1="-5.0927" x2="0.6731" y2="-5.0673" layer="200" rot="R180"/>
<rectangle x1="5.4737" y1="-5.0673" x2="7.0231" y2="-5.0419" layer="200" rot="R180"/>
<rectangle x1="-0.8509" y1="-5.0673" x2="0.6731" y2="-5.0419" layer="200" rot="R180"/>
<rectangle x1="5.4737" y1="-5.0419" x2="7.0231" y2="-5.0165" layer="200" rot="R180"/>
<rectangle x1="-0.8509" y1="-5.0419" x2="0.6731" y2="-5.0165" layer="200" rot="R180"/>
<rectangle x1="5.4737" y1="-5.0165" x2="6.9977" y2="-4.9911" layer="200" rot="R180"/>
<rectangle x1="-0.8509" y1="-5.0165" x2="0.6731" y2="-4.9911" layer="200" rot="R180"/>
<rectangle x1="-0.8509" y1="-4.9911" x2="0.6731" y2="-4.9657" layer="200" rot="R180"/>
<rectangle x1="-0.8509" y1="-4.9657" x2="0.5207" y2="-4.9403" layer="200" rot="R180"/>
<rectangle x1="5.5245" y1="4.8133" x2="7.0739" y2="4.8387" layer="200" rot="R180"/>
<rectangle x1="5.4991" y1="4.8387" x2="7.0993" y2="4.8641" layer="200" rot="R180"/>
<rectangle x1="5.4991" y1="4.8641" x2="7.0993" y2="4.8895" layer="200" rot="R180"/>
<rectangle x1="5.4991" y1="4.8895" x2="7.0993" y2="4.9149" layer="200" rot="R180"/>
<rectangle x1="-0.1651" y1="4.8895" x2="0.7239" y2="4.9149" layer="200" rot="R180"/>
<rectangle x1="5.4991" y1="4.9149" x2="7.0993" y2="4.9403" layer="200" rot="R180"/>
<rectangle x1="-0.7747" y1="4.9149" x2="0.7239" y2="4.9403" layer="200" rot="R180"/>
<rectangle x1="5.4991" y1="4.9403" x2="7.0993" y2="4.9657" layer="200" rot="R180"/>
<rectangle x1="-0.7747" y1="4.9403" x2="0.7239" y2="4.9657" layer="200" rot="R180"/>
<rectangle x1="5.4991" y1="4.9657" x2="7.0993" y2="4.9911" layer="200" rot="R180"/>
<rectangle x1="-0.7747" y1="4.9657" x2="0.7239" y2="4.9911" layer="200" rot="R180"/>
<rectangle x1="5.4991" y1="4.9911" x2="7.0993" y2="5.0165" layer="200" rot="R180"/>
<rectangle x1="-0.7747" y1="4.9911" x2="0.7239" y2="5.0165" layer="200" rot="R180"/>
<rectangle x1="5.4991" y1="5.0165" x2="7.0993" y2="5.0419" layer="200" rot="R180"/>
<rectangle x1="-0.7747" y1="5.0165" x2="0.7239" y2="5.0419" layer="200" rot="R180"/>
<rectangle x1="5.4991" y1="5.0419" x2="7.0993" y2="5.0673" layer="200" rot="R180"/>
<rectangle x1="-0.7747" y1="5.0419" x2="0.7239" y2="5.0673" layer="200" rot="R180"/>
<rectangle x1="5.4991" y1="5.0673" x2="7.0993" y2="5.0927" layer="200" rot="R180"/>
<rectangle x1="-0.7747" y1="5.0673" x2="0.7239" y2="5.0927" layer="200" rot="R180"/>
<rectangle x1="5.4991" y1="5.0927" x2="7.0993" y2="5.1181" layer="200" rot="R180"/>
<rectangle x1="-0.7747" y1="5.0927" x2="0.7239" y2="5.1181" layer="200" rot="R180"/>
<rectangle x1="5.4991" y1="5.1181" x2="7.0993" y2="5.1435" layer="200" rot="R180"/>
<rectangle x1="-0.7747" y1="5.1181" x2="0.7239" y2="5.1435" layer="200" rot="R180"/>
<rectangle x1="5.4991" y1="5.1435" x2="7.0993" y2="5.1689" layer="200" rot="R180"/>
<rectangle x1="-0.7747" y1="5.1435" x2="0.7239" y2="5.1689" layer="200" rot="R180"/>
<rectangle x1="5.4991" y1="5.1689" x2="7.0993" y2="5.1943" layer="200" rot="R180"/>
<rectangle x1="-0.7747" y1="5.1689" x2="0.7239" y2="5.1943" layer="200" rot="R180"/>
<rectangle x1="5.4991" y1="5.1943" x2="7.0993" y2="5.2197" layer="200" rot="R180"/>
<rectangle x1="-0.7747" y1="5.1943" x2="0.7239" y2="5.2197" layer="200" rot="R180"/>
<rectangle x1="5.4991" y1="5.2197" x2="7.0993" y2="5.2451" layer="200" rot="R180"/>
<rectangle x1="-0.7747" y1="5.2197" x2="0.7239" y2="5.2451" layer="200" rot="R180"/>
<rectangle x1="5.4991" y1="5.2451" x2="7.0993" y2="5.2705" layer="200" rot="R180"/>
<rectangle x1="-0.7747" y1="5.2451" x2="0.7239" y2="5.2705" layer="200" rot="R180"/>
<rectangle x1="5.4991" y1="5.2705" x2="7.0993" y2="5.2959" layer="200" rot="R180"/>
<rectangle x1="-0.7747" y1="5.2705" x2="0.7239" y2="5.2959" layer="200" rot="R180"/>
<rectangle x1="5.4991" y1="5.2959" x2="7.0739" y2="5.3213" layer="200" rot="R180"/>
<rectangle x1="-0.7747" y1="5.2959" x2="0.7239" y2="5.3213" layer="200" rot="R180"/>
<rectangle x1="5.4991" y1="5.3213" x2="7.0739" y2="5.3467" layer="200" rot="R180"/>
<rectangle x1="-0.7747" y1="5.3213" x2="0.7239" y2="5.3467" layer="200" rot="R180"/>
<rectangle x1="5.4991" y1="5.3467" x2="7.0739" y2="5.3721" layer="200" rot="R180"/>
<rectangle x1="-0.7747" y1="5.3467" x2="0.7239" y2="5.3721" layer="200" rot="R180"/>
<rectangle x1="5.4991" y1="5.3721" x2="7.0739" y2="5.3975" layer="200" rot="R180"/>
<rectangle x1="-0.7747" y1="5.3721" x2="0.7239" y2="5.3975" layer="200" rot="R180"/>
<rectangle x1="5.4991" y1="5.3975" x2="7.0739" y2="5.4229" layer="200" rot="R180"/>
<rectangle x1="-0.7747" y1="5.3975" x2="0.7239" y2="5.4229" layer="200" rot="R180"/>
<rectangle x1="5.5245" y1="5.4229" x2="7.0739" y2="5.4483" layer="200" rot="R180"/>
<rectangle x1="-0.7747" y1="5.4229" x2="0.7239" y2="5.4483" layer="200" rot="R180"/>
<rectangle x1="5.5245" y1="5.4483" x2="7.0739" y2="5.4737" layer="200" rot="R180"/>
<rectangle x1="-0.7747" y1="5.4483" x2="0.7239" y2="5.4737" layer="200" rot="R180"/>
<rectangle x1="5.5245" y1="5.4737" x2="7.0739" y2="5.4991" layer="200" rot="R180"/>
<rectangle x1="-0.7747" y1="5.4737" x2="0.7239" y2="5.4991" layer="200" rot="R180"/>
<rectangle x1="5.5245" y1="5.4991" x2="7.0739" y2="5.5245" layer="200" rot="R180"/>
<rectangle x1="-0.7747" y1="5.4991" x2="0.7239" y2="5.5245" layer="200" rot="R180"/>
<rectangle x1="5.5245" y1="5.5245" x2="7.0739" y2="5.5499" layer="200" rot="R180"/>
<rectangle x1="-0.7747" y1="5.5245" x2="0.7239" y2="5.5499" layer="200" rot="R180"/>
<rectangle x1="5.5245" y1="5.5499" x2="7.0739" y2="5.5753" layer="200" rot="R180"/>
<rectangle x1="-0.7747" y1="5.5499" x2="0.7239" y2="5.5753" layer="200" rot="R180"/>
<rectangle x1="5.5245" y1="5.5753" x2="7.0739" y2="5.6007" layer="200" rot="R180"/>
<rectangle x1="-0.7747" y1="5.5753" x2="0.7239" y2="5.6007" layer="200" rot="R180"/>
<rectangle x1="5.5245" y1="5.6007" x2="7.0739" y2="5.6261" layer="200" rot="R180"/>
<rectangle x1="-0.7747" y1="5.6007" x2="0.7239" y2="5.6261" layer="200" rot="R180"/>
<rectangle x1="5.5245" y1="5.6261" x2="7.0739" y2="5.6515" layer="200" rot="R180"/>
<rectangle x1="-0.7747" y1="5.6261" x2="0.7239" y2="5.6515" layer="200" rot="R180"/>
<rectangle x1="5.5245" y1="5.6515" x2="7.0739" y2="5.6769" layer="200" rot="R180"/>
<rectangle x1="-0.7747" y1="5.6515" x2="0.7239" y2="5.6769" layer="200" rot="R180"/>
<rectangle x1="5.5245" y1="5.6769" x2="7.0739" y2="5.7023" layer="200" rot="R180"/>
<rectangle x1="-0.7747" y1="5.6769" x2="0.7239" y2="5.7023" layer="200" rot="R180"/>
<rectangle x1="5.5245" y1="5.7023" x2="7.0739" y2="5.7277" layer="200" rot="R180"/>
<rectangle x1="-0.7747" y1="5.7023" x2="0.7239" y2="5.7277" layer="200" rot="R180"/>
<rectangle x1="5.5245" y1="5.7277" x2="7.0739" y2="5.7531" layer="200" rot="R180"/>
<rectangle x1="-0.7747" y1="5.7277" x2="0.7239" y2="5.7531" layer="200" rot="R180"/>
<rectangle x1="5.5245" y1="5.7531" x2="7.0739" y2="5.7785" layer="200" rot="R180"/>
<rectangle x1="-0.7747" y1="5.7531" x2="0.7239" y2="5.7785" layer="200" rot="R180"/>
<rectangle x1="5.5245" y1="5.7785" x2="7.0739" y2="5.8039" layer="200" rot="R180"/>
<rectangle x1="-0.7747" y1="5.7785" x2="0.7239" y2="5.8039" layer="200" rot="R180"/>
<rectangle x1="5.5245" y1="5.8039" x2="7.0739" y2="5.8293" layer="200" rot="R180"/>
<rectangle x1="-0.7747" y1="5.8039" x2="0.7239" y2="5.8293" layer="200" rot="R180"/>
<rectangle x1="5.5245" y1="5.8293" x2="7.0739" y2="5.8547" layer="200" rot="R180"/>
<rectangle x1="-0.7747" y1="5.8293" x2="0.7239" y2="5.8547" layer="200" rot="R180"/>
<rectangle x1="5.5245" y1="5.8547" x2="7.0739" y2="5.8801" layer="200" rot="R180"/>
<rectangle x1="-0.7747" y1="5.8547" x2="0.7239" y2="5.8801" layer="200" rot="R180"/>
<rectangle x1="5.5245" y1="5.8801" x2="7.0739" y2="5.9055" layer="200" rot="R180"/>
<rectangle x1="-0.7747" y1="5.8801" x2="0.7239" y2="5.9055" layer="200" rot="R180"/>
<rectangle x1="5.5245" y1="5.9055" x2="7.0739" y2="5.9309" layer="200" rot="R180"/>
<rectangle x1="-0.7747" y1="5.9055" x2="0.6985" y2="5.9309" layer="200" rot="R180"/>
<rectangle x1="5.5245" y1="5.9309" x2="7.0739" y2="5.9563" layer="200" rot="R180"/>
<rectangle x1="-0.7747" y1="5.9309" x2="0.6985" y2="5.9563" layer="200" rot="R180"/>
<rectangle x1="5.5245" y1="5.9563" x2="7.0739" y2="5.9817" layer="200" rot="R180"/>
<rectangle x1="-0.7747" y1="5.9563" x2="0.6985" y2="5.9817" layer="200" rot="R180"/>
<rectangle x1="5.5245" y1="5.9817" x2="7.0739" y2="6.0071" layer="200" rot="R180"/>
<rectangle x1="-0.7747" y1="5.9817" x2="0.6985" y2="6.0071" layer="200" rot="R180"/>
<rectangle x1="5.5245" y1="6.0071" x2="7.0739" y2="6.0325" layer="200" rot="R180"/>
<rectangle x1="-0.7747" y1="6.0071" x2="0.6985" y2="6.0325" layer="200" rot="R180"/>
<rectangle x1="5.5245" y1="6.0325" x2="7.0739" y2="6.0579" layer="200" rot="R180"/>
<rectangle x1="-0.7747" y1="6.0325" x2="0.6985" y2="6.0579" layer="200" rot="R180"/>
<rectangle x1="5.5245" y1="6.0579" x2="7.0739" y2="6.0833" layer="200" rot="R180"/>
<rectangle x1="-0.7747" y1="6.0579" x2="0.6985" y2="6.0833" layer="200" rot="R180"/>
<rectangle x1="5.5245" y1="6.0833" x2="7.0739" y2="6.1087" layer="200" rot="R180"/>
<rectangle x1="-0.7747" y1="6.0833" x2="0.6985" y2="6.1087" layer="200" rot="R180"/>
<rectangle x1="5.5245" y1="6.1087" x2="7.0739" y2="6.1341" layer="200" rot="R180"/>
<rectangle x1="-0.7747" y1="6.1087" x2="0.6985" y2="6.1341" layer="200" rot="R180"/>
<rectangle x1="5.5245" y1="6.1341" x2="7.0739" y2="6.1595" layer="200" rot="R180"/>
<rectangle x1="-0.7747" y1="6.1341" x2="0.6985" y2="6.1595" layer="200" rot="R180"/>
<rectangle x1="5.5245" y1="6.1595" x2="7.0739" y2="6.1849" layer="200" rot="R180"/>
<rectangle x1="-0.7747" y1="6.1595" x2="0.6985" y2="6.1849" layer="200" rot="R180"/>
<rectangle x1="5.5499" y1="6.1849" x2="7.0739" y2="6.2103" layer="200" rot="R180"/>
<rectangle x1="-0.7747" y1="6.1849" x2="0.6985" y2="6.2103" layer="200" rot="R180"/>
<rectangle x1="5.5499" y1="6.2103" x2="7.0485" y2="6.2357" layer="200" rot="R180"/>
<rectangle x1="-0.7747" y1="6.2103" x2="0.6985" y2="6.2357" layer="200" rot="R180"/>
<rectangle x1="5.5499" y1="6.2357" x2="7.0485" y2="6.2611" layer="200" rot="R180"/>
<rectangle x1="-0.7747" y1="6.2357" x2="0.6985" y2="6.2611" layer="200" rot="R180"/>
<rectangle x1="5.5499" y1="6.2611" x2="7.0485" y2="6.2865" layer="200" rot="R180"/>
<rectangle x1="-0.7747" y1="6.2611" x2="0.6985" y2="6.2865" layer="200" rot="R180"/>
<rectangle x1="5.5753" y1="6.2865" x2="7.0231" y2="6.3119" layer="200" rot="R180"/>
<rectangle x1="-0.7493" y1="6.2865" x2="0.6731" y2="6.3119" layer="200" rot="R180"/>
<rectangle x1="5.6007" y1="6.3119" x2="7.0231" y2="6.3373" layer="200" rot="R180"/>
<rectangle x1="-0.7493" y1="6.3119" x2="0.6731" y2="6.3373" layer="200" rot="R180"/>
<rectangle x1="5.6007" y1="6.3373" x2="6.9977" y2="6.3627" layer="200" rot="R180"/>
<rectangle x1="-0.7239" y1="6.3373" x2="0.6477" y2="6.3627" layer="200" rot="R180"/>
<rectangle x1="5.6261" y1="6.3627" x2="6.9723" y2="6.3881" layer="200" rot="R180"/>
<rectangle x1="-0.6985" y1="6.3627" x2="0.6223" y2="6.3881" layer="200" rot="R180"/>
<rectangle x1="5.6769" y1="6.3881" x2="6.9215" y2="6.4135" layer="200" rot="R180"/>
<rectangle x1="-0.6223" y1="6.3881" x2="0.5461" y2="6.4135" layer="200" rot="R180"/>
<rectangle x1="5.7531" y1="6.4135" x2="6.8707" y2="6.4389" layer="200" rot="R180"/>
<text x="9.906" y="-6.8072" size="0.0508" layer="200" font="vector" rot="MR0">//kentro/work/Production/AOI Parts/Tyler/Breadboard power 5v/barreljack.bmp</text>
<text x="4.7752" y="2.159" size="0.6096" layer="25" font="vector" ratio="20">&gt;NAME</text>
<text x="4.445" y="-2.667" size="0.6096" layer="27" font="vector" ratio="20">&gt;VALUE</text>
<text x="-1.2192" y="7.874" size="0.3048" layer="51" font="vector">OVERPASTE</text>
<text x="4.8768" y="7.8486" size="0.3048" layer="51" font="vector">OVERPASTE</text>
<text x="1.1938" y="-7.874" size="0.3048" layer="51" font="vector" rot="R180">OVERPASTE</text>
<text x="7.3152" y="-7.8994" size="0.3048" layer="51" font="vector" rot="R180">OVERPASTE</text>
</package>
<package name="POWER_JACK_PTH_BREAD" urn="urn:adsk.eagle:footprint:37876/1" library_version="1">
<description>&lt;h3&gt;DC Barrel Power Jack/Connector Breadboard Compatible&lt;/h3&gt;
Breadboard-friendly pins. 
5.5mm jack, 2.1mm center pole diameter
&lt;p&gt;Specifications:
&lt;ul&gt;&lt;li&gt;Pin count: 3&lt;/li&gt;
&lt;/ul&gt;&lt;/p&gt;
&lt;p&gt;&lt;a href=”http://cdn.sparkfun.com/datasheets/Prototyping/18742.pdf”&gt;Datasheet referenced for footprint&lt;/a&gt;&lt;/p&gt;
&lt;p&gt;Example device(s):
&lt;ul&gt;&lt;li&gt;POWER_JACK&lt;/li&gt;
&lt;/ul&gt;&lt;/p&gt;</description>
<wire x1="4.5" y1="14.6" x2="0.9" y2="14.6" width="0.2032" layer="21"/>
<wire x1="-4.5" y1="3.6" x2="-4.5" y2="0.1" width="0.2032" layer="51"/>
<wire x1="4.5" y1="0.1" x2="4.5" y2="3.4" width="0.2032" layer="51"/>
<wire x1="4.5" y1="0.1" x2="-4.5" y2="0.1" width="0.2032" layer="51"/>
<wire x1="4.5" y1="3.6" x2="4.5" y2="9.5" width="0.2032" layer="21"/>
<wire x1="4.5" y1="14.6" x2="4.5" y2="11.9" width="0.2032" layer="21"/>
<wire x1="-4.5" y1="3.6" x2="-4.5" y2="14.6" width="0.2032" layer="21"/>
<wire x1="-4.5" y1="14.6" x2="-0.9" y2="14.6" width="0.2032" layer="21"/>
<wire x1="-4.5" y1="3.6" x2="4.5" y2="3.6" width="0.2032" layer="21"/>
<pad name="PWR" x="0" y="13.7" drill="1.3"/>
<pad name="GND" x="0" y="7.9" drill="1.3"/>
<pad name="GNDBREAK" x="4.8" y="10.7" drill="1.3" rot="R90"/>
<text x="-1.5748" y="2.159" size="0.6096" layer="25" font="vector" ratio="20">&gt;NAME</text>
<text x="-1.905" y="1.143" size="0.6096" layer="27" font="vector" ratio="20">&gt;VALUE</text>
</package>
</packages>
<packages3d>
<package3d name="POWER_JACK_SMD" urn="urn:adsk.eagle:package:38221/1" type="box" library_version="1">
<description>DC Barrel Power Jack/Connector -SMD
5.5mm jack, 2.1mm center pole diameter. 
Specifications:
Pin count:4

Datasheet referenced for footprint
Example device(s):
POWER_JACK
</description>
</package3d>
<package3d name="POWER_JACK_SLOT" urn="urn:adsk.eagle:package:38222/1" type="box" library_version="1">
<description>DC Barrel Power Jack/Connector PTH Slot Pads
Extended soldering pads. 
5.5mm jack, 2.1mm center pole diameter
Specifications:
Pin count: 3

Datasheet referenced for footprint
Example device(s):
POWER_JACK
</description>
</package3d>
<package3d name="POWER_JACK_PTH" urn="urn:adsk.eagle:package:38231/1" type="box" library_version="1">
<description>DC Barrel Power Jack/Connector PTH
5.5mm jack, 2.1mm center pole diameter
Specifications:
Pin count: 3

Datasheet referenced for footprint
Example device(s):
POWER_JACK
</description>
</package3d>
<package3d name="POWER_JACK_COMBO" urn="urn:adsk.eagle:package:38223/1" type="box" library_version="1">
</package3d>
<package3d name="POWER_JACK_PTH_LOCK" urn="urn:adsk.eagle:package:38224/1" type="box" library_version="1">
<description>DC Barrel Power Jack/Connector PTH Locking Footprint
5.5mm jack, 2.1mm center pole diameter.
 Holes are offset from center 0.005" to hold pins in place during soldering. 
Specifications:
Pin count: 3

Datasheet referenced for footprint
Example device(s):
POWER_JACK
</description>
</package3d>
<package3d name="POWER_JACK_SMD_OVERPASTE_TOE" urn="urn:adsk.eagle:package:38226/1" type="box" library_version="1">
<description>DC Barrel Power Jack/Connector -SMD Overpaste
Over paste toe on each SMD pad to ease use of AOI. 
5.5mm jack, 2.1mm center pole diameter. 
Specifications:
Pin count:4

Datasheet referenced for footprint
Example device(s):
POWER_JACK
</description>
</package3d>
<package3d name="POWER_JACK_PTH_BREAD" urn="urn:adsk.eagle:package:38228/1" type="box" library_version="1">
<description>DC Barrel Power Jack/Connector Breadboard Compatible
Breadboard-friendly pins. 
5.5mm jack, 2.1mm center pole diameter
Specifications:
Pin count: 3

Datasheet referenced for footprint
Example device(s):
POWER_JACK
</description>
</package3d>
</packages3d>
<symbols>
<symbol name="POWERJACK" urn="urn:adsk.eagle:symbol:37869/1" library_version="1">
<wire x1="-10.16" y1="2.54" x2="-7.62" y2="5.08" width="0.1524" layer="94"/>
<wire x1="-7.62" y1="5.08" x2="-5.08" y2="2.54" width="0.1524" layer="94"/>
<wire x1="-5.08" y1="2.54" x2="-2.54" y2="2.54" width="0.1524" layer="94"/>
<wire x1="-2.54" y1="2.54" x2="0" y2="2.54" width="0.1524" layer="94"/>
<wire x1="-2.54" y1="2.54" x2="-2.54" y2="5.08" width="0.1524" layer="94"/>
<wire x1="-2.54" y1="5.08" x2="0" y2="5.08" width="0.1524" layer="94"/>
<text x="-10.16" y="10.16" size="1.778" layer="96" font="vector">&gt;Value</text>
<text x="-10.16" y="0" size="1.778" layer="95" font="vector">&gt;Name</text>
<rectangle x1="-10.16" y1="6.858" x2="0" y2="8.382" layer="94"/>
<pin name="GNDBREAK" x="2.54" y="5.08" visible="off" length="short" rot="R180"/>
<pin name="GND" x="2.54" y="2.54" visible="off" length="short" rot="R180"/>
<pin name="PWR" x="2.54" y="7.62" visible="off" length="short" rot="R180"/>
</symbol>
</symbols>
<devicesets>
<deviceset name="POWER_JACK" urn="urn:adsk.eagle:component:38358/1" prefix="J" library_version="1">
<description>&lt;h3&gt;Power Jack Connector&lt;/h3&gt;
This is the standard 5.5mm barrel jack for power.&lt;br&gt;
The PTH is the most common, proven, reliable, footprint.&lt;br&gt;
The Slot footprint only works if the mill layer is transmitted to the PCB fab house so be warned.&lt;br&gt;

&lt;p&gt;&lt;/p&gt;
&lt;b&gt;Here are the connectors we sell at SparkFun:&lt;/b&gt;
&lt;ul&gt;
&lt;li&gt;&lt;a href="https://www.sparkfun.com/products/119"&gt;DC Barrel Power Jack/Connector&lt;/a&gt; (PRT-00119)&lt;/li&gt;
&lt;li&gt;&lt;a href="https://www.sparkfun.com/products/12748"&gt;DC Barrel Power Jack/Connector (SMD)&lt;/a&gt; (PRT-12748)&lt;/li&gt;
&lt;li&gt;&lt;a href="https://www.sparkfun.com/products/10811"&gt;DC Barrel Jack Adapter - Breadboard Compatible&lt;/a&gt; (PRT-10811)&lt;/li&gt;
&lt;/ul&gt;

&lt;p&gt;&lt;/p&gt;
&lt;b&gt;It is used on this SparkFun product (and many, many others):&lt;/b&gt;
&lt;ul&gt;
&lt;li&gt;&lt;a href="https://www.sparkfun.com/products/12757"&gt;SparkFun RedBoard - Programmed with Arduino&lt;/a&gt; (DEV-12757)&lt;/li&gt;
&lt;/ul&gt;

&lt;p&gt;&lt;/p&gt;
&lt;b&gt;Also, if you need a mating power supply or connector, please check these out:&lt;/b&gt;
&lt;ul&gt;
&lt;li&gt;&lt;a href="https://www.sparkfun.com/products/298"&gt;Wall Adapter Power Supply - 9VDC 650mA&lt;/a&gt; (TOL-00298)&lt;/li&gt;
&lt;li&gt;&lt;a href="https://www.sparkfun.com/products/10287"&gt;DC Barrel Jack Adapter - Male&lt;/a&gt; (PRT-10287)&lt;/li&gt;
&lt;/ul&gt;</description>
<gates>
<gate name="G$1" symbol="POWERJACK" x="7.62" y="-2.54"/>
</gates>
<devices>
<device name="SMD" package="POWER_JACK_SMD">
<connects>
<connect gate="G$1" pin="GND" pad="P$4"/>
<connect gate="G$1" pin="GNDBREAK" pad="GND"/>
<connect gate="G$1" pin="PWR" pad="VIN0"/>
</connects>
<package3dinstances>
<package3dinstance package3d_urn="urn:adsk.eagle:package:38221/1"/>
</package3dinstances>
<technologies>
<technology name="">
<attribute name="PROD_ID" value="CONN-08106"/>
<attribute name="SF_ID" value="PRT-12748" constant="no"/>
<attribute name="VALUE" value="5.5x2.1mm Barrel" constant="no"/>
</technology>
</technologies>
</device>
<device name="SLT" package="POWER_JACK_SLOT">
<connects>
<connect gate="G$1" pin="GND" pad="GND@2"/>
<connect gate="G$1" pin="GNDBREAK" pad="GND@1"/>
<connect gate="G$1" pin="PWR" pad="PWR"/>
</connects>
<package3dinstances>
<package3dinstance package3d_urn="urn:adsk.eagle:package:38222/1"/>
</package3dinstances>
<technologies>
<technology name="">
<attribute name="PROD_ID" value="PRT-00119" constant="no"/>
</technology>
</technologies>
</device>
<device name="" package="POWER_JACK_PTH">
<connects>
<connect gate="G$1" pin="GND" pad="GND"/>
<connect gate="G$1" pin="GNDBREAK" pad="GNDBREAK"/>
<connect gate="G$1" pin="PWR" pad="PWR"/>
</connects>
<package3dinstances>
<package3dinstance package3d_urn="urn:adsk.eagle:package:38231/1"/>
</package3dinstances>
<technologies>
<technology name="">
<attribute name="PROD_ID" value="CONN-08197"/>
</technology>
</technologies>
</device>
<device name="PTH_SMD_COMBO" package="POWER_JACK_COMBO">
<connects>
<connect gate="G$1" pin="GND" pad="GND@1"/>
<connect gate="G$1" pin="GNDBREAK" pad="GND"/>
<connect gate="G$1" pin="PWR" pad="POWER"/>
</connects>
<package3dinstances>
<package3dinstance package3d_urn="urn:adsk.eagle:package:38223/1"/>
</package3dinstances>
<technologies>
<technology name=""/>
</technologies>
</device>
<device name="PTH_LOCK" package="POWER_JACK_PTH_LOCK">
<connects>
<connect gate="G$1" pin="GND" pad="GND"/>
<connect gate="G$1" pin="GNDBREAK" pad="GNDBREAK"/>
<connect gate="G$1" pin="PWR" pad="PWR"/>
</connects>
<package3dinstances>
<package3dinstance package3d_urn="urn:adsk.eagle:package:38224/1"/>
</package3dinstances>
<technologies>
<technology name="">
<attribute name="PROD_ID" value="CONN-08197" constant="no"/>
<attribute name="SF_ID" value="PRT-00119" constant="no"/>
</technology>
</technologies>
</device>
<device name="TOE" package="POWER_JACK_SMD_OVERPASTE_TOE">
<connects>
<connect gate="G$1" pin="GND" pad="P$4"/>
<connect gate="G$1" pin="GNDBREAK" pad="GND"/>
<connect gate="G$1" pin="PWR" pad="VIN0"/>
</connects>
<package3dinstances>
<package3dinstance package3d_urn="urn:adsk.eagle:package:38226/1"/>
</package3dinstances>
<technologies>
<technology name="">
<attribute name="PROD_ID" value="CONN-08106" constant="no"/>
<attribute name="SF_ID" value="PRT-12748" constant="no"/>
</technology>
</technologies>
</device>
<device name="PTH_BREAD" package="POWER_JACK_PTH_BREAD">
<connects>
<connect gate="G$1" pin="GND" pad="GND"/>
<connect gate="G$1" pin="GNDBREAK" pad="GNDBREAK"/>
<connect gate="G$1" pin="PWR" pad="PWR"/>
</connects>
<package3dinstances>
<package3dinstance package3d_urn="urn:adsk.eagle:package:38228/1"/>
</package3dinstances>
<technologies>
<technology name="">
<attribute name="PROD_ID" value="PRT-10811" constant="no"/>
</technology>
</technologies>
</device>
</devices>
</deviceset>
</devicesets>
</library>
<library name="SparkFun-Retired" urn="urn:adsk.eagle:library:533">
<description>&lt;h3&gt;SparkFun Electronics' Retired foot prints&lt;/h3&gt;
In this library you'll find all manner of retired footprints for resistors, capacitors, board names, ICs, etc., that are &lt;b&gt; no longer used&lt;/b&gt; in our catalog.
&lt;br&gt;
&lt;br&gt;
We've spent an enormous amount of time creating and checking these footprints and parts, but it is &lt;b&gt; the end user's responsibility&lt;/b&gt; to ensure correctness and suitablity for a given componet or application. 
&lt;br&gt;
&lt;br&gt;If you enjoy using this library, please buy one of our products at &lt;a href=" www.sparkfun.com"&gt;SparkFun.com&lt;/a&gt;.
&lt;br&gt;
&lt;br&gt;
&lt;b&gt;Licensing:&lt;/b&gt; Creative Commons ShareAlike 4.0 International - https://creativecommons.org/licenses/by-sa/4.0/ 
&lt;br&gt;
&lt;br&gt;
You are welcome to use this library for commercial purposes. For attribution, we ask that when you begin to sell your device using our footprint, you email us with a link to the product being sold. We want bragging rights that we helped (in a very small part) to create your 8th world wonder. We would like the opportunity to feature your device on our homepage.</description>
<packages>
<package name="1X02" library_version="1">
<description>&lt;h3&gt;Plated Through Hole&lt;/h3&gt;
&lt;p&gt;Specifications:
&lt;ul&gt;&lt;li&gt;Pin count:2&lt;/li&gt;
&lt;li&gt;Pin pitch:0.1"&lt;/li&gt;
&lt;/ul&gt;&lt;/p&gt;
&lt;p&gt;Example device(s):
&lt;ul&gt;&lt;li&gt;CONN_02&lt;/li&gt;
&lt;/ul&gt;&lt;/p&gt;</description>
<wire x1="-0.635" y1="1.27" x2="0.635" y2="1.27" width="0.2032" layer="21"/>
<wire x1="0.635" y1="1.27" x2="1.27" y2="0.635" width="0.2032" layer="21"/>
<wire x1="1.27" y1="-0.635" x2="0.635" y2="-1.27" width="0.2032" layer="21"/>
<wire x1="1.27" y1="0.635" x2="1.905" y2="1.27" width="0.2032" layer="21"/>
<wire x1="1.905" y1="1.27" x2="3.175" y2="1.27" width="0.2032" layer="21"/>
<wire x1="3.175" y1="1.27" x2="3.81" y2="0.635" width="0.2032" layer="21"/>
<wire x1="3.81" y1="-0.635" x2="3.175" y2="-1.27" width="0.2032" layer="21"/>
<wire x1="3.175" y1="-1.27" x2="1.905" y2="-1.27" width="0.2032" layer="21"/>
<wire x1="1.905" y1="-1.27" x2="1.27" y2="-0.635" width="0.2032" layer="21"/>
<wire x1="-1.27" y1="0.635" x2="-1.27" y2="-0.635" width="0.2032" layer="21"/>
<wire x1="-0.635" y1="1.27" x2="-1.27" y2="0.635" width="0.2032" layer="21"/>
<wire x1="-1.27" y1="-0.635" x2="-0.635" y2="-1.27" width="0.2032" layer="21"/>
<wire x1="0.635" y1="-1.27" x2="-0.635" y2="-1.27" width="0.2032" layer="21"/>
<wire x1="3.81" y1="0.635" x2="3.81" y2="-0.635" width="0.2032" layer="21"/>
<pad name="1" x="0" y="0" drill="1.016" diameter="1.8796" rot="R90"/>
<pad name="2" x="2.54" y="0" drill="1.016" diameter="1.8796" rot="R90"/>
<rectangle x1="2.286" y1="-0.254" x2="2.794" y2="0.254" layer="51"/>
<rectangle x1="-0.254" y1="-0.254" x2="0.254" y2="0.254" layer="51"/>
<text x="-1.27" y="1.397" size="0.6096" layer="25" font="vector" ratio="20">&gt;NAME</text>
<text x="-1.27" y="-2.032" size="0.6096" layer="27" font="vector" ratio="20">&gt;VALUE</text>
</package>
<package name="SJ_2S" library_version="1">
<description>Small solder jumper with big paste layer so it will short during reflow.</description>
<wire x1="0.8" y1="-1" x2="-0.8" y2="-1" width="0.1524" layer="21"/>
<wire x1="0.8" y1="1" x2="1.1" y2="0.75" width="0.1524" layer="21" curve="-90"/>
<wire x1="-1.1" y1="0.75" x2="-0.8" y2="1" width="0.1524" layer="21" curve="-90"/>
<wire x1="-1.1" y1="-0.75" x2="-0.8" y2="-1" width="0.1524" layer="21" curve="90.114706"/>
<wire x1="0.8" y1="-1" x2="1.1" y2="-0.75" width="0.1524" layer="21" curve="90"/>
<wire x1="1.1" y1="-0.75" x2="1.1" y2="0.75" width="0.1524" layer="21"/>
<wire x1="-1.1" y1="-0.75" x2="-1.1" y2="0.75" width="0.1524" layer="21"/>
<wire x1="-0.8" y1="1" x2="0.8" y2="1" width="0.1524" layer="21"/>
<smd name="1" x="-0.4119" y="0" dx="0.635" dy="1.27" layer="1"/>
<smd name="2" x="0.4119" y="0" dx="0.635" dy="1.27" layer="1"/>
<text x="-0.9498" y="1.27" size="0.4064" layer="25">&gt;NAME</text>
<text x="-0.9498" y="-1.651" size="0.4064" layer="27">&gt;VALUE</text>
<rectangle x1="-1.2192" y1="-1.143" x2="1.2192" y2="1.143" layer="31"/>
</package>
<package name="1X02_LOCK" library_version="1">
<description>&lt;h3&gt;Plated Through Hole - Locking Footprint&lt;/h3&gt;
Holes are staggered by 0.005" from center to hold pins while soldering. 
&lt;p&gt;Specifications:
&lt;ul&gt;&lt;li&gt;Pin count:2&lt;/li&gt;
&lt;li&gt;Pin pitch:0.1"&lt;/li&gt;
&lt;/ul&gt;&lt;/p&gt;
&lt;p&gt;Example device(s):
&lt;ul&gt;&lt;li&gt;CONN_02&lt;/li&gt;
&lt;/ul&gt;&lt;/p&gt;</description>
<wire x1="-0.635" y1="1.27" x2="0.635" y2="1.27" width="0.2032" layer="21"/>
<wire x1="0.635" y1="1.27" x2="1.27" y2="0.635" width="0.2032" layer="21"/>
<wire x1="1.27" y1="-0.635" x2="0.635" y2="-1.27" width="0.2032" layer="21"/>
<wire x1="1.27" y1="0.635" x2="1.905" y2="1.27" width="0.2032" layer="21"/>
<wire x1="1.905" y1="1.27" x2="3.175" y2="1.27" width="0.2032" layer="21"/>
<wire x1="3.175" y1="1.27" x2="3.81" y2="0.635" width="0.2032" layer="21"/>
<wire x1="3.81" y1="-0.635" x2="3.175" y2="-1.27" width="0.2032" layer="21"/>
<wire x1="3.175" y1="-1.27" x2="1.905" y2="-1.27" width="0.2032" layer="21"/>
<wire x1="1.905" y1="-1.27" x2="1.27" y2="-0.635" width="0.2032" layer="21"/>
<wire x1="-1.27" y1="0.635" x2="-1.27" y2="-0.635" width="0.2032" layer="21"/>
<wire x1="-0.635" y1="1.27" x2="-1.27" y2="0.635" width="0.2032" layer="21"/>
<wire x1="-1.27" y1="-0.635" x2="-0.635" y2="-1.27" width="0.2032" layer="21"/>
<wire x1="0.635" y1="-1.27" x2="-0.635" y2="-1.27" width="0.2032" layer="21"/>
<wire x1="3.81" y1="0.635" x2="3.81" y2="-0.635" width="0.2032" layer="21"/>
<pad name="1" x="-0.1778" y="0" drill="1.016" diameter="1.8796" rot="R90"/>
<pad name="2" x="2.7178" y="0" drill="1.016" diameter="1.8796" rot="R90"/>
<rectangle x1="-0.2921" y1="-0.2921" x2="0.2921" y2="0.2921" layer="51"/>
<rectangle x1="2.2479" y1="-0.2921" x2="2.8321" y2="0.2921" layer="51"/>
<text x="-1.27" y="1.397" size="0.6096" layer="25" font="vector" ratio="20">&gt;NAME</text>
<text x="-1.27" y="-2.032" size="0.6096" layer="27" font="vector" ratio="20">&gt;VALUE</text>
</package>
<package name="SJ_2S-NO" library_version="1">
<description>Small solder jumper with no paste layer so it will open after reflow.</description>
<wire x1="0.8" y1="-1" x2="-0.8" y2="-1" width="0.2032" layer="21"/>
<wire x1="0.8" y1="1" x2="1" y2="0.7" width="0.2032" layer="21" curve="-90"/>
<wire x1="-1" y1="0.7" x2="-0.8" y2="1" width="0.2032" layer="21" curve="-90"/>
<wire x1="-1" y1="-0.7" x2="-0.8" y2="-1" width="0.2032" layer="21" curve="90"/>
<wire x1="0.8" y1="-1" x2="1" y2="-0.7" width="0.2032" layer="21" curve="90"/>
<wire x1="-0.8" y1="1" x2="0.8" y2="1" width="0.2032" layer="21"/>
<smd name="1" x="-0.45" y="0" dx="0.635" dy="1.27" layer="1" cream="no"/>
<smd name="2" x="0.45" y="0" dx="0.635" dy="1.27" layer="1" cream="no"/>
<text x="-0.908" y="1.27" size="0.4064" layer="25">&gt;NAME</text>
<text x="-0.908" y="-1.651" size="0.4064" layer="27">&gt;VALUE</text>
</package>
<package name="SJ_2S-NO-NS" library_version="1">
<smd name="1" x="-0.45" y="0" dx="0.635" dy="1.27" layer="1" cream="no"/>
<smd name="2" x="0.45" y="0" dx="0.635" dy="1.27" layer="1" cream="no"/>
<text x="-0.908" y="1.27" size="0.4064" layer="25">&gt;NAME</text>
<text x="-0.908" y="-1.651" size="0.4064" layer="27">&gt;VALUE</text>
</package>
</packages>
<symbols>
<symbol name="JUMPER-2" library_version="1">
<wire x1="0" y1="0" x2="0" y2="1.27" width="0.1524" layer="94"/>
<wire x1="0" y1="2.54" x2="0" y2="1.27" width="0.4064" layer="94"/>
<wire x1="2.54" y1="0" x2="2.54" y2="1.27" width="0.1524" layer="94"/>
<wire x1="2.54" y1="2.54" x2="2.54" y2="1.27" width="0.4064" layer="94"/>
<wire x1="-0.635" y1="0" x2="3.175" y2="0" width="0.4064" layer="94"/>
<wire x1="3.175" y1="0" x2="3.175" y2="0.635" width="0.4064" layer="94"/>
<wire x1="3.175" y1="0.635" x2="-0.635" y2="0.635" width="0.4064" layer="94"/>
<wire x1="-0.635" y1="0.635" x2="-0.635" y2="0" width="0.4064" layer="94"/>
<text x="-1.27" y="0" size="1.778" layer="95" rot="R90">&gt;NAME</text>
<text x="5.715" y="0" size="1.778" layer="96" rot="R90">&gt;VALUE</text>
<pin name="1" x="0" y="-2.54" visible="pad" length="short" direction="pas" rot="R90"/>
<pin name="2" x="2.54" y="-2.54" visible="pad" length="short" direction="pas" rot="R90"/>
</symbol>
</symbols>
<devicesets>
<deviceset name="JUMPER-2" prefix="JP" uservalue="yes" library_version="1">
<description>&lt;b&gt;Jumper&lt;/b&gt;
Basic 0.1" spaced jumper. Use with breakaway headers.</description>
<gates>
<gate name="A" symbol="JUMPER-2" x="2.54" y="0"/>
</gates>
<devices>
<device name="PTH" package="1X02">
<connects>
<connect gate="A" pin="1" pad="1"/>
<connect gate="A" pin="2" pad="2"/>
</connects>
<technologies>
<technology name=""/>
</technologies>
</device>
<device name="SMD-NC" package="SJ_2S">
<connects>
<connect gate="A" pin="1" pad="1"/>
<connect gate="A" pin="2" pad="2"/>
</connects>
<technologies>
<technology name=""/>
</technologies>
</device>
<device name="PTH_LOCK" package="1X02_LOCK">
<connects>
<connect gate="A" pin="1" pad="1"/>
<connect gate="A" pin="2" pad="2"/>
</connects>
<technologies>
<technology name=""/>
</technologies>
</device>
<device name="SMD-NO" package="SJ_2S-NO">
<connects>
<connect gate="A" pin="1" pad="1"/>
<connect gate="A" pin="2" pad="2"/>
</connects>
<technologies>
<technology name=""/>
</technologies>
</device>
<device name="SMD-NO-NS" package="SJ_2S-NO-NS">
<connects>
<connect gate="A" pin="1" pad="1"/>
<connect gate="A" pin="2" pad="2"/>
</connects>
<technologies>
<technology name=""/>
</technologies>
</device>
</devices>
</deviceset>
</devicesets>
</library>
</libraries>
<attributes>
</attributes>
<variantdefs>
</variantdefs>
<classes>
<class number="0" name="default" width="0" drill="0">
</class>
</classes>
<parts>
<part name="U$1" library="SpO2_Sensor" deviceset="MAX3010X" device=""/>
<part name="U$2" library="SpO2_Sensor" deviceset="OLED" device=""/>
<part name="U$3" library="Arduino-clone" deviceset="NANO" device=""/>
<part name="J1" library="SparkFun-Connectors" library_urn="urn:adsk.eagle:library:513" deviceset="POWER_JACK" device="" package3d_urn="urn:adsk.eagle:package:38231/1"/>
<part name="JP1" library="SparkFun-Retired" library_urn="urn:adsk.eagle:library:533" deviceset="JUMPER-2" device="PTH"/>
</parts>
<sheets>
<sheet>
<plain>
</plain>
<instances>
<instance part="U$1" gate="G$1" x="-5.08" y="93.98"/>
<instance part="U$2" gate="G$1" x="104.14" y="10.16"/>
<instance part="U$3" gate="G$1" x="83.82" y="78.74"/>
<instance part="J1" gate="G$1" x="101.6" y="35.56" rot="MR0"/>
<instance part="JP1" gate="A" x="58.42" y="45.72"/>
</instances>
<busses>
</busses>
<nets>
<net name="GND" class="0">
<segment>
<pinref part="U$3" gate="G$1" pin="GND"/>
<wire x1="60.96" y1="60.96" x2="48.26" y2="60.96" width="0.1524" layer="91"/>
<wire x1="48.26" y1="60.96" x2="48.26" y2="45.72" width="0.1524" layer="91"/>
<pinref part="U$2" gate="G$1" pin="GND"/>
<wire x1="48.26" y1="45.72" x2="48.26" y2="40.64" width="0.1524" layer="91"/>
<wire x1="48.26" y1="40.64" x2="48.26" y2="12.7" width="0.1524" layer="91"/>
<wire x1="48.26" y1="12.7" x2="60.96" y2="12.7" width="0.1524" layer="91"/>
<pinref part="U$1" gate="G$1" pin="GND"/>
<wire x1="-5.08" y1="58.42" x2="-15.24" y2="58.42" width="0.1524" layer="91"/>
<wire x1="-15.24" y1="58.42" x2="-15.24" y2="45.72" width="0.1524" layer="91"/>
<wire x1="-15.24" y1="45.72" x2="48.26" y2="45.72" width="0.1524" layer="91"/>
<junction x="48.26" y="45.72"/>
<label x="12.7" y="45.72" size="1.778" layer="95"/>
<label x="50.8" y="12.7" size="1.778" layer="95"/>
<wire x1="99.06" y1="40.64" x2="96.52" y2="40.64" width="0.1524" layer="91"/>
<junction x="48.26" y="40.64"/>
<label x="81.28" y="40.64" size="1.778" layer="95"/>
<pinref part="U$3" gate="G$1" pin="GND2"/>
<wire x1="96.52" y1="40.64" x2="91.44" y2="40.64" width="0.1524" layer="91"/>
<wire x1="91.44" y1="40.64" x2="48.26" y2="40.64" width="0.1524" layer="91"/>
<wire x1="93.98" y1="66.04" x2="96.52" y2="66.04" width="0.1524" layer="91"/>
<wire x1="96.52" y1="66.04" x2="96.52" y2="40.64" width="0.1524" layer="91"/>
<junction x="96.52" y="40.64"/>
<wire x1="99.06" y1="38.1" x2="91.44" y2="38.1" width="0.1524" layer="91"/>
<wire x1="91.44" y1="38.1" x2="91.44" y2="40.64" width="0.1524" layer="91"/>
<junction x="91.44" y="40.64"/>
<pinref part="J1" gate="G$1" pin="GNDBREAK"/>
<pinref part="J1" gate="G$1" pin="GND"/>
</segment>
</net>
<net name="5V" class="0">
<segment>
<pinref part="U$3" gate="G$1" pin="5.5V"/>
<wire x1="60.96" y1="66.04" x2="53.34" y2="66.04" width="0.1524" layer="91"/>
<pinref part="U$2" gate="G$1" pin="VCC"/>
<wire x1="53.34" y1="66.04" x2="53.34" y2="17.78" width="0.1524" layer="91"/>
<wire x1="53.34" y1="17.78" x2="60.96" y2="17.78" width="0.1524" layer="91"/>
<label x="55.88" y="17.78" size="1.778" layer="95"/>
</segment>
</net>
<net name="SCL" class="0">
<segment>
<pinref part="U$1" gate="G$1" pin="SCL"/>
<pinref part="U$3" gate="G$1" pin="A5"/>
<wire x1="27.94" y1="73.66" x2="45.72" y2="73.66" width="0.1524" layer="91"/>
<pinref part="U$2" gate="G$1" pin="SCL"/>
<wire x1="45.72" y1="73.66" x2="60.96" y2="73.66" width="0.1524" layer="91"/>
<wire x1="60.96" y1="22.86" x2="45.72" y2="22.86" width="0.1524" layer="91"/>
<wire x1="45.72" y1="22.86" x2="45.72" y2="73.66" width="0.1524" layer="91"/>
<junction x="45.72" y="73.66"/>
<label x="33.02" y="73.66" size="1.778" layer="95"/>
<label x="45.72" y="35.56" size="1.778" layer="95"/>
</segment>
</net>
<net name="SDA" class="0">
<segment>
<pinref part="U$2" gate="G$1" pin="SDA"/>
<wire x1="60.96" y1="27.94" x2="43.18" y2="27.94" width="0.1524" layer="91"/>
<wire x1="43.18" y1="27.94" x2="43.18" y2="68.58" width="0.1524" layer="91"/>
<pinref part="U$1" gate="G$1" pin="SDA"/>
<wire x1="43.18" y1="68.58" x2="27.94" y2="68.58" width="0.1524" layer="91"/>
<pinref part="U$3" gate="G$1" pin="A4"/>
<wire x1="60.96" y1="76.2" x2="43.18" y2="76.2" width="0.1524" layer="91"/>
<wire x1="43.18" y1="76.2" x2="43.18" y2="68.58" width="0.1524" layer="91"/>
<junction x="43.18" y="68.58"/>
<label x="33.02" y="68.58" size="1.778" layer="95"/>
<label x="43.18" y="33.02" size="1.778" layer="95"/>
</segment>
</net>
<net name="3V3" class="0">
<segment>
<pinref part="U$3" gate="G$1" pin="3.3V"/>
<wire x1="60.96" y1="91.44" x2="40.64" y2="91.44" width="0.1524" layer="91"/>
<wire x1="40.64" y1="91.44" x2="40.64" y2="50.8" width="0.1524" layer="91"/>
<wire x1="40.64" y1="50.8" x2="-20.32" y2="50.8" width="0.1524" layer="91"/>
<wire x1="-20.32" y1="50.8" x2="-20.32" y2="63.5" width="0.1524" layer="91"/>
<pinref part="U$1" gate="G$1" pin="3V3"/>
<wire x1="-20.32" y1="63.5" x2="-5.08" y2="63.5" width="0.1524" layer="91"/>
<label x="12.7" y="50.8" size="1.778" layer="95"/>
<label x="50.8" y="91.44" size="1.778" layer="95"/>
</segment>
</net>
<net name="9V" class="0">
<segment>
<wire x1="99.06" y1="43.18" x2="60.96" y2="43.18" width="0.1524" layer="91"/>
<label x="81.28" y="43.18" size="1.778" layer="95"/>
<pinref part="J1" gate="G$1" pin="PWR"/>
<pinref part="JP1" gate="A" pin="2"/>
</segment>
</net>
<net name="INT" class="0">
<segment>
<pinref part="U$3" gate="G$1" pin="D3"/>
<wire x1="93.98" y1="71.12" x2="99.06" y2="71.12" width="0.1524" layer="91"/>
<wire x1="99.06" y1="71.12" x2="99.06" y2="101.6" width="0.1524" layer="91"/>
<wire x1="99.06" y1="101.6" x2="35.56" y2="101.6" width="0.1524" layer="91"/>
<wire x1="35.56" y1="101.6" x2="35.56" y2="88.9" width="0.1524" layer="91"/>
<pinref part="U$1" gate="G$1" pin="P$15"/>
<wire x1="35.56" y1="88.9" x2="27.94" y2="88.9" width="0.1524" layer="91"/>
<label x="53.34" y="101.6" size="1.778" layer="95"/>
</segment>
</net>
<net name="VIN" class="0">
<segment>
<pinref part="U$3" gate="G$1" pin="RAW"/>
<pinref part="JP1" gate="A" pin="1"/>
<wire x1="58.42" y1="43.18" x2="55.88" y2="43.18" width="0.1524" layer="91"/>
<wire x1="55.88" y1="43.18" x2="55.88" y2="58.42" width="0.1524" layer="91"/>
<wire x1="55.88" y1="58.42" x2="60.96" y2="58.42" width="0.1524" layer="91"/>
<label x="55.88" y="53.34" size="1.778" layer="95"/>
</segment>
</net>
</nets>
</sheet>
</sheets>
</schematic>
</drawing>
<compatibility>
<note version="8.2" severity="warning">
Since Version 8.2, EAGLE supports online libraries. The ids
of those online libraries will not be understood (or retained)
with this version.
</note>
<note version="8.3" severity="warning">
Since Version 8.3, EAGLE supports URNs for individual library
assets (packages, symbols, and devices). The URNs of those assets
will not be understood (or retained) with this version.
</note>
<note version="8.3" severity="warning">
Since Version 8.3, EAGLE supports the association of 3D packages
with devices in libraries, schematics, and board files. Those 3D
packages will not be understood (or retained) with this version.
</note>
</compatibility>
</eagle>
